
RAxML-NG v. 0.9.0 released on 20.05.2019 by The Exelixis Lab.
Developed by: Alexey M. Kozlov and Alexandros Stamatakis.
Contributors: Diego Darriba, Tomas Flouri, Benoit Morel, Sarah Lutteropp, Ben Bettisworth.
Latest version: https://github.com/amkozlov/raxml-ng
Questions/problems/suggestions? Please visit: https://groups.google.com/forum/#!forum/raxml

RAxML-NG was called at 24-Apr-2020 09:40:39 as follows:

raxml-ng --threads 1 --search --tree rand{8},pars{8} --seed 425450066 --prefix phylogeny/RAxML-NG/DNA/part/sep/SARS-CoV-2_200414.6 --msa phylogeny/RAxML-NG/DNA/part/sep/SARS-CoV-2_200414.raxml.rba --outgroup MG772933.1

Analysis options:
  run mode: ML tree search
  start tree(s): random (8) + parsimony (8)
  random seed: 425450066
  tip-inner: OFF
  pattern compression: ON
  per-rate scalers: OFF
  site repeats: ON
  fast spr radius: AUTO
  spr subtree cutoff: 1.000000
  branch lengths: proportional (ML estimate, algorithm: NR-FAST)
  SIMD kernels: AVX2
  parallelization: NONE/sequential

[00:00:00] Loading binary alignment from file: phylogeny/RAxML-NG/DNA/part/sep/SARS-CoV-2_200414.raxml.rba
[00:00:00] Alignment comprises 376 taxa, 33 partitions and 1139 patterns

Partition 0: orf1ab_U_p1
Model: TN93+FO+I+B
Alignment sites / patterns: 4404 / 101
Gaps: 0.07 %
Invariant sites: 94.60 %

Partition 1: orf1ab_U_p2
Model: TIM3+I+G4m+B
Alignment sites / patterns: 4404 / 124
Gaps: 0.07 %
Invariant sites: 96.05 %

Partition 2: orf1ab_U_p3
Model: GTR+FO+I+G4m+B
Alignment sites / patterns: 4404 / 152
Gaps: 0.07 %
Invariant sites: 73.14 %

Partition 3: orf1ab_D_p1
Model: TIM1+I+B
Alignment sites / patterns: 2699 / 60
Gaps: 0.11 %
Invariant sites: 92.66 %

Partition 4: orf1ab_D_p2
Model: TIM1+I+G4m+B
Alignment sites / patterns: 2699 / 50
Gaps: 0.11 %
Invariant sites: 97.63 %

Partition 5: orf1ab_D_p3
Model: GTR+FO+G4m+B
Alignment sites / patterns: 2699 / 99
Gaps: 0.11 %
Invariant sites: 62.13 %

Partition 6: S_p1
Model: TN93+FO+G4m+B
Alignment sites / patterns: 1274 / 52
Gaps: 0.01 %
Invariant sites: 82.50 %

Partition 7: S_p2
Model: TIM3+I+G4m+B
Alignment sites / patterns: 1274 / 47
Gaps: 0.01 %
Invariant sites: 90.19 %

Partition 8: S_p3
Model: HKY+FO+G4m+B
Alignment sites / patterns: 1274 / 93
Gaps: 0.01 %
Invariant sites: 49.76 %

Partition 9: ORF3a_p1
Model: JC+G4m+B
Alignment sites / patterns: 276 / 24
Gaps: 0.00 %
Invariant sites: 89.86 %

Partition 10: ORF3a_p2
Model: F81+FO+I+G4m+B
Alignment sites / patterns: 276 / 23
Gaps: 0.00 %
Invariant sites: 93.84 %

Partition 11: ORF3a_p3
Model: GTR+FO+I+G4m+B
Alignment sites / patterns: 276 / 30
Gaps: 0.00 %
Invariant sites: 69.93 %

Partition 12: E_p1
Model: JC+B
Alignment sites / patterns: 76 / 6
Gaps: 0.00 %
Invariant sites: 97.37 %

Partition 13: E_p2
Model: JC+B
Alignment sites / patterns: 76 / 6
Gaps: 0.00 %
Invariant sites: 97.37 %

Partition 14: E_p3
Model: JC+B
Alignment sites / patterns: 76 / 7
Gaps: 0.00 %
Invariant sites: 96.05 %

Partition 15: M_p1
Model: K80+I+B
Alignment sites / patterns: 223 / 11
Gaps: 0.00 %
Invariant sites: 95.07 %

Partition 16: M_p2
Model: JC+B
Alignment sites / patterns: 223 / 9
Gaps: 0.00 %
Invariant sites: 98.21 %

Partition 17: M_p3
Model: K80+I+G4m+B
Alignment sites / patterns: 223 / 29
Gaps: 0.00 %
Invariant sites: 77.58 %

Partition 18: ORF6_p1
Model: JC+B
Alignment sites / patterns: 62 / 7
Gaps: 0.00 %
Invariant sites: 93.55 %

Partition 19: ORF6_p2
Model: JC+B
Alignment sites / patterns: 62 / 6
Gaps: 0.00 %
Invariant sites: 96.77 %

Partition 20: ORF6_p3
Model: TN93ef+G4m+B
Alignment sites / patterns: 62 / 13
Gaps: 0.00 %
Invariant sites: 82.26 %

Partition 21: ORF7a_p1
Model: K80+B
Alignment sites / patterns: 122 / 11
Gaps: 0.00 %
Invariant sites: 90.98 %

Partition 22: ORF7a_p2
Model: K80+B
Alignment sites / patterns: 122 / 13
Gaps: 0.00 %
Invariant sites: 90.16 %

Partition 23: ORF7a_p3
Model: HKY+FO+G4m+B
Alignment sites / patterns: 122 / 19
Gaps: 0.00 %
Invariant sites: 76.23 %

Partition 24: ORF8_p1
Model: JC+I+G4m+B
Alignment sites / patterns: 122 / 14
Gaps: 0.00 %
Invariant sites: 92.62 %

Partition 25: ORF8_p2
Model: TIM3+I+G4m+B
Alignment sites / patterns: 122 / 12
Gaps: 0.00 %
Invariant sites: 94.26 %

Partition 26: ORF8_p3
Model: HKY+FO+B
Alignment sites / patterns: 122 / 18
Gaps: 0.00 %
Invariant sites: 68.85 %

Partition 27: N_p1
Model: F81+FO+I+G4m+B
Alignment sites / patterns: 420 / 21
Gaps: 0.00 %
Invariant sites: 93.81 %

Partition 28: N_p2
Model: HKY+FO+I+G4m+B
Alignment sites / patterns: 420 / 24
Gaps: 0.00 %
Invariant sites: 94.29 %

Partition 29: N_p3
Model: HKY+FO+G4m+B
Alignment sites / patterns: 420 / 41
Gaps: 0.00 %
Invariant sites: 74.52 %

Partition 30: ORF10_p1
Model: JC+B
Alignment sites / patterns: 39 / 8
Gaps: 0.00 %
Invariant sites: 89.74 %

Partition 31: ORF10_p2
Model: JC+B
Alignment sites / patterns: 39 / 4
Gaps: 0.00 %
Invariant sites: 100.00 %

Partition 32: ORF10_p3
Model: JC+B
Alignment sites / patterns: 39 / 5
Gaps: 0.00 %
Invariant sites: 97.44 %


[00:00:00] Generating 8 random starting tree(s) with 376 taxa
[00:00:00] Generating 8 parsimony starting tree(s) with 376 taxa
[00:00:03] Data distribution: max. partitions/sites/weight per thread: 33 / 1139 / 14960

Starting ML tree search with 16 distinct starting trees

[00:00:03 -328947.528091] Initial branch length optimization
[00:00:05 -74350.086318] Model parameter optimization (eps = 10.000000)
[00:01:33 -66217.007926] AUTODETECT spr round 1 (radius: 5)
[00:02:05 -63349.332802] AUTODETECT spr round 2 (radius: 10)
[00:02:51 -61971.793580] AUTODETECT spr round 3 (radius: 15)
[00:03:51 -61134.182283] AUTODETECT spr round 4 (radius: 20)
[00:05:10 -60976.477929] AUTODETECT spr round 5 (radius: 25)
[00:06:28 -60951.594505] SPR radius for FAST iterations: 25 (autodetect)
[00:06:28 -60951.594505] Model parameter optimization (eps = 3.000000)
[00:08:33 -60345.386781] FAST spr round 1 (radius: 25)
[00:11:05 -59877.856666] FAST spr round 2 (radius: 25)
[00:12:53 -59877.732658] FAST spr round 3 (radius: 25)
[00:14:18 -59877.732131] Model parameter optimization (eps = 1.000000)
[00:15:45 -59817.904935] SLOW spr round 1 (radius: 5)
[00:16:51 -59817.854979] SLOW spr round 2 (radius: 10)
[00:18:08 -59817.626900] SLOW spr round 3 (radius: 5)
[00:19:07 -59817.626835] SLOW spr round 4 (radius: 10)
[00:20:22 -59817.626834] SLOW spr round 5 (radius: 15)
[00:21:44 -59817.626834] SLOW spr round 6 (radius: 20)
[00:23:22 -59817.626834] SLOW spr round 7 (radius: 25)
[00:25:04 -59817.626834] Model parameter optimization (eps = 0.100000)

[00:25:32] ML tree search #1, logLikelihood: -59816.986003

[00:25:32 -329055.062394] Initial branch length optimization
[00:25:35 -74598.595951] Model parameter optimization (eps = 10.000000)
[00:27:12 -66322.112274] AUTODETECT spr round 1 (radius: 5)
[00:27:53 -63508.676185] AUTODETECT spr round 2 (radius: 10)
[00:28:46 -62267.627547] AUTODETECT spr round 3 (radius: 15)
[00:29:46 -61348.825344] AUTODETECT spr round 4 (radius: 20)
[00:31:02 -61155.855725] AUTODETECT spr round 5 (radius: 25)
[00:32:26 -61038.362093] SPR radius for FAST iterations: 25 (autodetect)
[00:32:26 -61038.362093] Model parameter optimization (eps = 3.000000)
[00:34:38 -60445.911385] FAST spr round 1 (radius: 25)
[00:37:16 -59974.713631] FAST spr round 2 (radius: 25)
[00:39:05 -59948.146684] FAST spr round 3 (radius: 25)
[00:40:35 -59870.364942] FAST spr round 4 (radius: 25)
[00:41:45 -59870.278547] Model parameter optimization (eps = 1.000000)
[00:42:56 -59817.082857] SLOW spr round 1 (radius: 5)
[00:44:01 -59817.043531] SLOW spr round 2 (radius: 10)
[00:45:15 -59817.043062] SLOW spr round 3 (radius: 15)
[00:46:35 -59817.043056] SLOW spr round 4 (radius: 20)
[00:48:21 -59817.043056] SLOW spr round 5 (radius: 25)
[00:50:23 -59817.043056] Model parameter optimization (eps = 0.100000)

[00:50:38] ML tree search #2, logLikelihood: -59816.714722

[00:50:38 -328966.733381] Initial branch length optimization
[00:50:40 -74274.105626] Model parameter optimization (eps = 10.000000)
[00:52:20 -66217.821139] AUTODETECT spr round 1 (radius: 5)
[00:53:04 -63501.752485] AUTODETECT spr round 2 (radius: 10)
[00:54:01 -62177.679489] AUTODETECT spr round 3 (radius: 15)
[00:55:06 -61495.761320] AUTODETECT spr round 4 (radius: 20)
[00:56:18 -61298.600585] AUTODETECT spr round 5 (radius: 25)
[00:57:36 -61071.662202] SPR radius for FAST iterations: 25 (autodetect)
[00:57:36 -61071.662202] Model parameter optimization (eps = 3.000000)
[01:00:01 -60412.955859] FAST spr round 1 (radius: 25)
[01:02:21 -59849.473943] FAST spr round 2 (radius: 25)
[01:03:57 -59849.166503] FAST spr round 3 (radius: 25)
[01:05:10 -59849.145694] Model parameter optimization (eps = 1.000000)
[01:06:04 -59825.490009] SLOW spr round 1 (radius: 5)
[01:07:14 -59825.450832] SLOW spr round 2 (radius: 10)
[01:08:35 -59824.635983] SLOW spr round 3 (radius: 5)
[01:09:41 -59824.635978] SLOW spr round 4 (radius: 10)
[01:11:00 -59824.635978] SLOW spr round 5 (radius: 15)
[01:12:25 -59824.635702] SLOW spr round 6 (radius: 20)
[01:13:59 -59824.635702] SLOW spr round 7 (radius: 25)
[01:15:34 -59824.635702] Model parameter optimization (eps = 0.100000)

[01:15:53] ML tree search #3, logLikelihood: -59824.321610

[01:15:53 -329104.667782] Initial branch length optimization
[01:15:56 -74830.716701] Model parameter optimization (eps = 10.000000)
[01:17:35 -66432.611612] AUTODETECT spr round 1 (radius: 5)
[01:18:18 -63306.891630] AUTODETECT spr round 2 (radius: 10)
[01:19:16 -61952.813295] AUTODETECT spr round 3 (radius: 15)
[01:20:34 -61251.306358] AUTODETECT spr round 4 (radius: 20)
[01:21:53 -61013.507656] AUTODETECT spr round 5 (radius: 25)
[01:23:19 -60977.326509] SPR radius for FAST iterations: 25 (autodetect)
[01:23:19 -60977.326509] Model parameter optimization (eps = 3.000000)
[01:25:16 -60377.746986] FAST spr round 1 (radius: 25)
[01:27:55 -59959.717723] FAST spr round 2 (radius: 25)
[01:29:43 -59956.620928] FAST spr round 3 (radius: 25)
[01:31:14 -59955.401099] FAST spr round 4 (radius: 25)
[01:32:33 -59882.343732] FAST spr round 5 (radius: 25)
[01:33:45 -59882.247475] Model parameter optimization (eps = 1.000000)
[01:34:58 -59822.439975] SLOW spr round 1 (radius: 5)
[01:36:09 -59822.409974] SLOW spr round 2 (radius: 10)
[01:37:26 -59822.409759] SLOW spr round 3 (radius: 15)
[01:38:49 -59822.409755] SLOW spr round 4 (radius: 20)
[01:40:38 -59822.409457] SLOW spr round 5 (radius: 25)
[01:42:19 -59822.409457] Model parameter optimization (eps = 0.100000)

[01:42:43] ML tree search #4, logLikelihood: -59821.790047

[01:42:44 -328963.714441] Initial branch length optimization
[01:42:46 -74432.053749] Model parameter optimization (eps = 10.000000)
[01:44:23 -66316.054001] AUTODETECT spr round 1 (radius: 5)
[01:45:10 -63220.442551] AUTODETECT spr round 2 (radius: 10)
[01:46:08 -62013.810244] AUTODETECT spr round 3 (radius: 15)
[01:47:15 -61432.402995] AUTODETECT spr round 4 (radius: 20)
[01:48:33 -61079.837410] AUTODETECT spr round 5 (radius: 25)
[01:49:53 -60989.128564] SPR radius for FAST iterations: 25 (autodetect)
[01:49:53 -60989.128564] Model parameter optimization (eps = 3.000000)
[01:52:09 -60328.526341] FAST spr round 1 (radius: 25)
[01:54:34 -59892.124842] FAST spr round 2 (radius: 25)
[01:56:15 -59843.543977] FAST spr round 3 (radius: 25)
[01:57:36 -59843.497799] Model parameter optimization (eps = 1.000000)
[01:58:30 -59817.790713] SLOW spr round 1 (radius: 5)
[01:59:40 -59817.526243] SLOW spr round 2 (radius: 5)
[02:00:45 -59817.525337] SLOW spr round 3 (radius: 10)
[02:02:01 -59817.504057] SLOW spr round 4 (radius: 15)
[02:03:29 -59817.504039] SLOW spr round 5 (radius: 20)
[02:05:17 -59817.504039] SLOW spr round 6 (radius: 25)
[02:07:04 -59817.504039] Model parameter optimization (eps = 0.100000)

[02:07:32] ML tree search #5, logLikelihood: -59816.953196

[02:07:32 -328997.043641] Initial branch length optimization
[02:07:34 -74398.318167] Model parameter optimization (eps = 10.000000)
[02:09:10 -66198.284974] AUTODETECT spr round 1 (radius: 5)
[02:09:55 -63164.405592] AUTODETECT spr round 2 (radius: 10)
[02:10:53 -62052.933874] AUTODETECT spr round 3 (radius: 15)
[02:11:59 -61444.399930] AUTODETECT spr round 4 (radius: 20)
[02:13:15 -61140.916818] AUTODETECT spr round 5 (radius: 25)
[02:14:35 -61108.301569] SPR radius for FAST iterations: 25 (autodetect)
[02:14:35 -61108.301569] Model parameter optimization (eps = 3.000000)
[02:16:28 -60502.823504] FAST spr round 1 (radius: 25)
[02:19:07 -59951.238827] FAST spr round 2 (radius: 25)
[02:21:08 -59878.244683] FAST spr round 3 (radius: 25)
[02:22:49 -59878.183129] Model parameter optimization (eps = 1.000000)
[02:24:12 -59817.920875] SLOW spr round 1 (radius: 5)
[02:25:27 -59817.860442] SLOW spr round 2 (radius: 10)
[02:26:46 -59817.632691] SLOW spr round 3 (radius: 5)
[02:27:51 -59817.632626] SLOW spr round 4 (radius: 10)
[02:29:08 -59817.632625] SLOW spr round 5 (radius: 15)
[02:30:34 -59817.632625] SLOW spr round 6 (radius: 20)
[02:32:17 -59817.632625] SLOW spr round 7 (radius: 25)
[02:34:07 -59817.632625] Model parameter optimization (eps = 0.100000)

[02:34:36] ML tree search #6, logLikelihood: -59816.987771

[02:34:36 -329084.673752] Initial branch length optimization
[02:34:39 -74724.919513] Model parameter optimization (eps = 10.000000)
[02:36:33 -66396.629375] AUTODETECT spr round 1 (radius: 5)
[02:37:17 -63205.753528] AUTODETECT spr round 2 (radius: 10)
[02:38:11 -62235.708595] AUTODETECT spr round 3 (radius: 15)
[02:39:12 -61496.007503] AUTODETECT spr round 4 (radius: 20)
[02:40:23 -61133.958666] AUTODETECT spr round 5 (radius: 25)
[02:41:42 -61006.501560] SPR radius for FAST iterations: 25 (autodetect)
[02:41:42 -61006.501560] Model parameter optimization (eps = 3.000000)
[02:43:43 -60357.192374] FAST spr round 1 (radius: 25)
[02:46:18 -59890.343592] FAST spr round 2 (radius: 25)
[02:48:05 -59870.300233] FAST spr round 3 (radius: 25)
[02:49:29 -59870.247698] Model parameter optimization (eps = 1.000000)
[02:50:48 -59817.164090] SLOW spr round 1 (radius: 5)
[02:51:58 -59816.878751] SLOW spr round 2 (radius: 5)
[02:53:05 -59816.877132] SLOW spr round 3 (radius: 10)
[02:54:26 -59816.877121] SLOW spr round 4 (radius: 15)
[02:55:53 -59816.877121] SLOW spr round 5 (radius: 20)
[02:57:33 -59816.877121] SLOW spr round 6 (radius: 25)
[02:59:12 -59816.877121] Model parameter optimization (eps = 0.100000)

[02:59:37] ML tree search #7, logLikelihood: -59816.348603

[02:59:37 -329048.907850] Initial branch length optimization
[02:59:39 -74694.954682] Model parameter optimization (eps = 10.000000)
[03:01:20 -66391.161384] AUTODETECT spr round 1 (radius: 5)
[03:02:05 -63572.352188] AUTODETECT spr round 2 (radius: 10)
[03:03:01 -62136.608174] AUTODETECT spr round 3 (radius: 15)
[03:04:07 -61521.769797] AUTODETECT spr round 4 (radius: 20)
[03:05:20 -61176.933839] AUTODETECT spr round 5 (radius: 25)
[03:06:36 -61086.569153] SPR radius for FAST iterations: 25 (autodetect)
[03:06:36 -61086.569153] Model parameter optimization (eps = 3.000000)
[03:08:49 -60408.395257] FAST spr round 1 (radius: 25)
[03:11:30 -59856.414709] FAST spr round 2 (radius: 25)
[03:13:12 -59841.697638] FAST spr round 3 (radius: 25)
[03:14:27 -59841.697627] Model parameter optimization (eps = 1.000000)
[03:15:23 -59817.146556] SLOW spr round 1 (radius: 5)
[03:16:36 -59816.863602] SLOW spr round 2 (radius: 5)
[03:17:47 -59816.862140] SLOW spr round 3 (radius: 10)
[03:19:15 -59816.862130] SLOW spr round 4 (radius: 15)
[03:20:37 -59816.862130] SLOW spr round 5 (radius: 20)
[03:22:11 -59816.862130] SLOW spr round 6 (radius: 25)
[03:23:53 -59816.862130] Model parameter optimization (eps = 0.100000)

[03:24:19] ML tree search #8, logLikelihood: -59816.327379

[03:24:19 -321517.949161] Initial branch length optimization
[03:24:21 -63049.900835] Model parameter optimization (eps = 10.000000)
[03:24:57 -59833.912843] AUTODETECT spr round 1 (radius: 5)
[03:25:38 -59831.061933] AUTODETECT spr round 2 (radius: 10)
[03:26:29 -59831.016827] SPR radius for FAST iterations: 5 (autodetect)
[03:26:29 -59831.016827] Model parameter optimization (eps = 3.000000)
[03:26:37 -59829.154038] FAST spr round 1 (radius: 5)
[03:27:29 -59829.070588] Model parameter optimization (eps = 1.000000)
[03:27:57 -59825.850340] SLOW spr round 1 (radius: 5)
[03:29:11 -59825.779779] SLOW spr round 2 (radius: 10)
[03:30:21 -59825.777139] SLOW spr round 3 (radius: 15)
[03:31:40 -59822.044206] SLOW spr round 4 (radius: 5)
[03:32:51 -59822.005146] SLOW spr round 5 (radius: 10)
[03:34:02 -59822.005075] SLOW spr round 6 (radius: 15)
[03:35:18 -59822.005074] SLOW spr round 7 (radius: 20)
[03:36:45 -59822.005074] SLOW spr round 8 (radius: 25)
[03:38:09 -59819.975900] SLOW spr round 9 (radius: 5)
[03:39:21 -59819.973377] SLOW spr round 10 (radius: 10)
[03:40:36 -59819.973377] SLOW spr round 11 (radius: 15)
[03:41:55 -59819.973377] SLOW spr round 12 (radius: 20)
[03:43:23 -59819.973377] SLOW spr round 13 (radius: 25)
[03:44:45 -59819.973377] Model parameter optimization (eps = 0.100000)

[03:45:36] ML tree search #9, logLikelihood: -59817.588899

[03:45:36 -321519.691277] Initial branch length optimization
[03:45:38 -63051.949933] Model parameter optimization (eps = 10.000000)
[03:46:21 -59833.473949] AUTODETECT spr round 1 (radius: 5)
[03:47:04 -59830.905465] AUTODETECT spr round 2 (radius: 10)
[03:47:56 -59830.835043] SPR radius for FAST iterations: 5 (autodetect)
[03:47:56 -59830.835043] Model parameter optimization (eps = 3.000000)
[03:48:06 -59829.120859] FAST spr round 1 (radius: 5)
[03:48:58 -59829.030203] Model parameter optimization (eps = 1.000000)
[03:49:18 -59826.903911] SLOW spr round 1 (radius: 5)
[03:50:32 -59826.840018] SLOW spr round 2 (radius: 10)
[03:51:50 -59826.837362] SLOW spr round 3 (radius: 15)
[03:53:14 -59826.837362] SLOW spr round 4 (radius: 20)
[03:54:57 -59824.723163] SLOW spr round 5 (radius: 5)
[03:56:15 -59824.715307] SLOW spr round 6 (radius: 10)
[03:57:32 -59824.715307] SLOW spr round 7 (radius: 15)
[03:58:51 -59824.715307] SLOW spr round 8 (radius: 20)
[04:00:23 -59824.715307] SLOW spr round 9 (radius: 25)
[04:01:55 -59820.988316] SLOW spr round 10 (radius: 5)
[04:03:15 -59820.951924] SLOW spr round 11 (radius: 10)
[04:04:31 -59820.951856] SLOW spr round 12 (radius: 15)
[04:05:51 -59820.951855] SLOW spr round 13 (radius: 20)
[04:07:26 -59820.951855] SLOW spr round 14 (radius: 25)
[04:08:56 -59820.951855] Model parameter optimization (eps = 0.100000)

[04:10:02] ML tree search #10, logLikelihood: -59817.617264

[04:10:02 -321519.606644] Initial branch length optimization
[04:10:04 -63050.397710] Model parameter optimization (eps = 10.000000)
[04:10:48 -59831.371791] AUTODETECT spr round 1 (radius: 5)
[04:11:34 -59828.780258] AUTODETECT spr round 2 (radius: 10)
[04:12:29 -59828.761960] SPR radius for FAST iterations: 5 (autodetect)
[04:12:29 -59828.761960] Model parameter optimization (eps = 3.000000)
[04:12:40 -59827.011012] FAST spr round 1 (radius: 5)
[04:13:35 -59826.934437] Model parameter optimization (eps = 1.000000)
[04:13:53 -59824.779057] SLOW spr round 1 (radius: 5)
[04:15:08 -59824.709709] SLOW spr round 2 (radius: 10)
[04:16:22 -59824.709697] SLOW spr round 3 (radius: 15)
[04:17:42 -59824.709697] SLOW spr round 4 (radius: 20)
[04:19:19 -59824.709697] SLOW spr round 5 (radius: 25)
[04:20:49 -59820.983891] SLOW spr round 6 (radius: 5)
[04:22:09 -59820.938536] SLOW spr round 7 (radius: 10)
[04:23:24 -59820.938235] SLOW spr round 8 (radius: 15)
[04:24:44 -59820.935659] SLOW spr round 9 (radius: 20)
[04:26:19 -59820.935659] SLOW spr round 10 (radius: 25)
[04:27:49 -59820.935659] Model parameter optimization (eps = 0.100000)

[04:28:51] ML tree search #11, logLikelihood: -59817.631896

[04:28:51 -321520.098671] Initial branch length optimization
[04:28:53 -63055.701302] Model parameter optimization (eps = 10.000000)
[04:29:38 -59833.716836] AUTODETECT spr round 1 (radius: 5)
[04:30:21 -59830.148526] AUTODETECT spr round 2 (radius: 10)
[04:31:12 -59828.683463] AUTODETECT spr round 3 (radius: 15)
[04:32:11 -59828.683423] SPR radius for FAST iterations: 10 (autodetect)
[04:32:11 -59828.683423] Model parameter optimization (eps = 3.000000)
[04:32:23 -59826.948745] FAST spr round 1 (radius: 10)
[04:33:30 -59826.874507] Model parameter optimization (eps = 1.000000)
[04:33:49 -59824.726518] SLOW spr round 1 (radius: 5)
[04:35:07 -59824.658435] SLOW spr round 2 (radius: 10)
[04:36:22 -59824.658423] SLOW spr round 3 (radius: 15)
[04:37:43 -59824.658422] SLOW spr round 4 (radius: 20)
[04:39:06 -59824.658422] SLOW spr round 5 (radius: 25)
[04:40:22 -59824.658422] Model parameter optimization (eps = 0.100000)

[04:41:24] ML tree search #12, logLikelihood: -59821.735455

[04:41:24 -321525.797252] Initial branch length optimization
[04:41:26 -63057.284403] Model parameter optimization (eps = 10.000000)
[04:42:08 -59835.103511] AUTODETECT spr round 1 (radius: 5)
[04:42:49 -59829.386032] AUTODETECT spr round 2 (radius: 10)
[04:43:40 -59828.554713] AUTODETECT spr round 3 (radius: 15)
[04:44:37 -59825.074850] AUTODETECT spr round 4 (radius: 20)
[04:45:39 -59825.072003] SPR radius for FAST iterations: 15 (autodetect)
[04:45:39 -59825.072003] Model parameter optimization (eps = 3.000000)
[04:45:48 -59823.071058] FAST spr round 1 (radius: 15)
[04:47:08 -59822.990187] Model parameter optimization (eps = 1.000000)
[04:47:41 -59818.690491] SLOW spr round 1 (radius: 5)
[04:49:00 -59818.627381] SLOW spr round 2 (radius: 10)
[04:50:10 -59818.624226] SLOW spr round 3 (radius: 15)
[04:51:28 -59818.624225] SLOW spr round 4 (radius: 20)
[04:53:00 -59818.624225] SLOW spr round 5 (radius: 25)
[04:54:35 -59818.624225] Model parameter optimization (eps = 0.100000)

[04:55:19] ML tree search #13, logLikelihood: -59817.362061

[04:55:19 -321524.552964] Initial branch length optimization
[04:55:21 -63063.214968] Model parameter optimization (eps = 10.000000)
[04:56:07 -59845.383183] AUTODETECT spr round 1 (radius: 5)
[04:56:51 -59840.984299] AUTODETECT spr round 2 (radius: 10)
[04:57:44 -59840.651773] AUTODETECT spr round 3 (radius: 15)
[04:58:45 -59827.493324] AUTODETECT spr round 4 (radius: 20)
[04:59:46 -59827.490446] SPR radius for FAST iterations: 15 (autodetect)
[04:59:46 -59827.490446] Model parameter optimization (eps = 3.000000)
[04:59:56 -59825.377532] FAST spr round 1 (radius: 15)
[05:01:24 -59825.297994] Model parameter optimization (eps = 1.000000)
[05:01:54 -59821.910811] SLOW spr round 1 (radius: 5)
[05:03:14 -59821.847491] SLOW spr round 2 (radius: 10)
[05:04:33 -59821.844640] SLOW spr round 3 (radius: 15)
[05:05:54 -59821.844640] SLOW spr round 4 (radius: 20)
[05:07:20 -59821.844640] SLOW spr round 5 (radius: 25)
[05:08:47 -59821.844640] Model parameter optimization (eps = 0.100000)

[05:09:43] ML tree search #14, logLikelihood: -59819.791640

[05:09:43 -321525.285069] Initial branch length optimization
[05:09:45 -63053.863439] Model parameter optimization (eps = 10.000000)
[05:10:32 -59834.524984] AUTODETECT spr round 1 (radius: 5)
[05:11:17 -59831.892105] AUTODETECT spr round 2 (radius: 10)
[05:12:11 -59830.703242] AUTODETECT spr round 3 (radius: 15)
[05:13:12 -59826.961103] AUTODETECT spr round 4 (radius: 20)
[05:14:16 -59826.961103] SPR radius for FAST iterations: 15 (autodetect)
[05:14:16 -59826.961103] Model parameter optimization (eps = 3.000000)
[05:14:26 -59824.893973] FAST spr round 1 (radius: 15)
[05:15:56 -59823.077041] FAST spr round 2 (radius: 15)
[05:17:12 -59823.060022] Model parameter optimization (eps = 1.000000)
[05:17:39 -59819.651299] SLOW spr round 1 (radius: 5)
[05:18:47 -59819.593347] SLOW spr round 2 (radius: 10)
[05:20:05 -59819.592506] SLOW spr round 3 (radius: 15)
[05:21:26 -59819.592247] SLOW spr round 4 (radius: 20)
[05:22:54 -59819.592132] SLOW spr round 5 (radius: 25)
[05:24:30 -59819.589039] Model parameter optimization (eps = 0.100000)

[05:25:22] ML tree search #15, logLikelihood: -59817.582349

[05:25:22 -321520.148463] Initial branch length optimization
[05:25:24 -63053.118816] Model parameter optimization (eps = 10.000000)
[05:26:07 -59829.435488] AUTODETECT spr round 1 (radius: 5)
[05:26:51 -59826.110053] AUTODETECT spr round 2 (radius: 10)
[05:27:43 -59824.659065] AUTODETECT spr round 3 (radius: 15)
[05:28:46 -59824.659029] SPR radius for FAST iterations: 10 (autodetect)
[05:28:46 -59824.659029] Model parameter optimization (eps = 3.000000)
[05:28:55 -59822.907373] FAST spr round 1 (radius: 10)
[05:30:02 -59822.814180] Model parameter optimization (eps = 1.000000)
[05:30:20 -59820.655044] SLOW spr round 1 (radius: 5)
[05:31:39 -59820.576159] SLOW spr round 2 (radius: 10)
[05:32:56 -59820.576145] SLOW spr round 3 (radius: 15)
[05:34:17 -59820.576145] SLOW spr round 4 (radius: 20)
[05:35:58 -59820.576145] SLOW spr round 5 (radius: 25)
[05:37:39 -59820.576145] Model parameter optimization (eps = 0.100000)

[05:38:42] ML tree search #16, logLikelihood: -59817.577573



Final LogLikelihood: -59816.327379

AIC score: 121420.654757 / AICc score: 121477.289100 / BIC score: 128823.193337
Free parameters (model + branch lengths): 894

Best ML tree saved to: /home/hikoyu/analysis/Genome/SARS-CoV-2/phylogeny/RAxML-NG/DNA/part/sep/SARS-CoV-2_200414.6.raxml.bestTree
All ML trees saved to: /home/hikoyu/analysis/Genome/SARS-CoV-2/phylogeny/RAxML-NG/DNA/part/sep/SARS-CoV-2_200414.6.raxml.mlTrees
Optimized model saved to: /home/hikoyu/analysis/Genome/SARS-CoV-2/phylogeny/RAxML-NG/DNA/part/sep/SARS-CoV-2_200414.6.raxml.bestModel

Execution log saved to: /home/hikoyu/analysis/Genome/SARS-CoV-2/phylogeny/RAxML-NG/DNA/part/sep/SARS-CoV-2_200414.6.raxml.log

Analysis started: 24-Apr-2020 09:40:39 / finished: 24-Apr-2020 15:19:22

Elapsed time: 20322.380 seconds

