
RAxML-NG v. 0.9.0 released on 20.05.2019 by The Exelixis Lab.
Developed by: Alexey M. Kozlov and Alexandros Stamatakis.
Contributors: Diego Darriba, Tomas Flouri, Benoit Morel, Sarah Lutteropp, Ben Bettisworth.
Latest version: https://github.com/amkozlov/raxml-ng
Questions/problems/suggestions? Please visit: https://groups.google.com/forum/#!forum/raxml

RAxML-NG was called at 21-Apr-2020 19:22:25 as follows:

raxml-ng --threads 1 --bootstrap --bs-trees 83 --seed 1725955631 --prefix phylogeny/RAxML-NG/DNA/part/3rd/SARS-CoV-2_200414.7 --msa phylogeny/RAxML-NG/DNA/part/3rd/SARS-CoV-2_200414.raxml.rba --outgroup MG772933.1

Analysis options:
  run mode: Bootstrapping
  start tree(s): 
  bootstrap replicates: 83
  random seed: 1725955631
  tip-inner: OFF
  pattern compression: ON
  per-rate scalers: OFF
  site repeats: ON
  branch lengths: proportional (ML estimate, algorithm: NR-FAST)
  SIMD kernels: AVX2
  parallelization: NONE/sequential

[00:00:00] Loading binary alignment from file: phylogeny/RAxML-NG/DNA/part/3rd/SARS-CoV-2_200414.raxml.rba
[00:00:00] Alignment comprises 376 taxa, 22 partitions and 992 patterns

Partition 0: orf1ab_U
Model: TN93+FO+I+G4m+B
Alignment sites / patterns: 8808 / 175
Gaps: 0.07 %
Invariant sites: 95.32 %

Partition 1: orf1ab_U_p3
Model: GTR+FO+I+G4m+B
Alignment sites / patterns: 4404 / 152
Gaps: 0.07 %
Invariant sites: 73.14 %

Partition 2: orf1ab_D
Model: TIM1+I+G4m+B
Alignment sites / patterns: 5398 / 88
Gaps: 0.11 %
Invariant sites: 95.15 %

Partition 3: orf1ab_D_p3
Model: GTR+FO+G4m+B
Alignment sites / patterns: 2699 / 99
Gaps: 0.11 %
Invariant sites: 62.13 %

Partition 4: S
Model: TN93+FO+I+G4m+B
Alignment sites / patterns: 2548 / 74
Gaps: 0.01 %
Invariant sites: 86.34 %

Partition 5: S_p3
Model: HKY+FO+G4m+B
Alignment sites / patterns: 1274 / 93
Gaps: 0.01 %
Invariant sites: 49.76 %

Partition 6: ORF3a
Model: TVMef+I+G4m+B
Alignment sites / patterns: 552 / 35
Gaps: 0.00 %
Invariant sites: 91.85 %

Partition 7: ORF3a_p3
Model: GTR+FO+I+G4m+B
Alignment sites / patterns: 276 / 30
Gaps: 0.00 %
Invariant sites: 69.93 %

Partition 8: E
Model: JC+B
Alignment sites / patterns: 152 / 8
Gaps: 0.00 %
Invariant sites: 97.37 %

Partition 9: E_p3
Model: JC+B
Alignment sites / patterns: 76 / 7
Gaps: 0.00 %
Invariant sites: 96.05 %

Partition 10: M
Model: K80+I+B
Alignment sites / patterns: 446 / 15
Gaps: 0.00 %
Invariant sites: 96.64 %

Partition 11: M_p3
Model: K80+I+G4m+B
Alignment sites / patterns: 223 / 29
Gaps: 0.00 %
Invariant sites: 77.58 %

Partition 12: ORF6
Model: JC+B
Alignment sites / patterns: 124 / 8
Gaps: 0.00 %
Invariant sites: 95.16 %

Partition 13: ORF6_p3
Model: TN93ef+G4m+B
Alignment sites / patterns: 62 / 13
Gaps: 0.00 %
Invariant sites: 82.26 %

Partition 14: ORF7a
Model: K80+B
Alignment sites / patterns: 244 / 17
Gaps: 0.00 %
Invariant sites: 90.57 %

Partition 15: ORF7a_p3
Model: HKY+FO+G4m+B
Alignment sites / patterns: 122 / 19
Gaps: 0.00 %
Invariant sites: 76.23 %

Partition 16: ORF8
Model: TIM1+I+G4m+B
Alignment sites / patterns: 244 / 22
Gaps: 0.00 %
Invariant sites: 93.44 %

Partition 17: ORF8_p3
Model: HKY+FO+B
Alignment sites / patterns: 122 / 18
Gaps: 0.00 %
Invariant sites: 68.85 %

Partition 18: N
Model: HKY+FO+I+G4m+B
Alignment sites / patterns: 840 / 36
Gaps: 0.00 %
Invariant sites: 94.05 %

Partition 19: N_p3
Model: HKY+FO+G4m+B
Alignment sites / patterns: 420 / 41
Gaps: 0.00 %
Invariant sites: 74.52 %

Partition 20: ORF10
Model: JC+B
Alignment sites / patterns: 78 / 8
Gaps: 0.00 %
Invariant sites: 94.87 %

Partition 21: ORF10_p3
Model: JC+B
Alignment sites / patterns: 39 / 5
Gaps: 0.00 %
Invariant sites: 97.44 %


[00:00:00] Data distribution: max. partitions/sites/weight per thread: 22 / 992 / 14840
[00:00:00] Starting bootstrapping analysis with 83 replicates.

[00:15:52] Bootstrap tree #1, logLikelihood: -60180.396946
[00:32:35] Bootstrap tree #2, logLikelihood: -59637.242926
[00:50:16] Bootstrap tree #3, logLikelihood: -59629.245858
[01:09:37] Bootstrap tree #4, logLikelihood: -60073.838057
[01:26:52] Bootstrap tree #5, logLikelihood: -60113.300697
[01:44:03] Bootstrap tree #6, logLikelihood: -59601.552514
[01:59:55] Bootstrap tree #7, logLikelihood: -59643.643424
[02:22:06] Bootstrap tree #8, logLikelihood: -60327.287366
[02:40:52] Bootstrap tree #9, logLikelihood: -59514.865950
[02:58:32] Bootstrap tree #10, logLikelihood: -59567.531266
[03:15:28] Bootstrap tree #11, logLikelihood: -59248.448849
[03:34:33] Bootstrap tree #12, logLikelihood: -59116.356421
[03:51:21] Bootstrap tree #13, logLikelihood: -59549.430679
[04:06:13] Bootstrap tree #14, logLikelihood: -59565.273343
[04:23:31] Bootstrap tree #15, logLikelihood: -59766.873171
[04:42:34] Bootstrap tree #16, logLikelihood: -59367.774401
[05:02:49] Bootstrap tree #17, logLikelihood: -59677.405344
[05:21:41] Bootstrap tree #18, logLikelihood: -59939.659789
[05:38:09] Bootstrap tree #19, logLikelihood: -59668.999075
[06:04:38] Bootstrap tree #20, logLikelihood: -59670.712211
[06:33:17] Bootstrap tree #21, logLikelihood: -59588.786299
[06:54:47] Bootstrap tree #22, logLikelihood: -59252.106751
[07:15:21] Bootstrap tree #23, logLikelihood: -60160.502362
[07:40:07] Bootstrap tree #24, logLikelihood: -59597.672536
[07:56:57] Bootstrap tree #25, logLikelihood: -59465.594560
[08:17:14] Bootstrap tree #26, logLikelihood: -59382.956009
[08:32:35] Bootstrap tree #27, logLikelihood: -59704.826508
[08:50:48] Bootstrap tree #28, logLikelihood: -59440.225677
[09:09:58] Bootstrap tree #29, logLikelihood: -59921.342884
[09:31:36] Bootstrap tree #30, logLikelihood: -59768.857480
[09:51:05] Bootstrap tree #31, logLikelihood: -59086.053115
[10:09:43] Bootstrap tree #32, logLikelihood: -59281.651491
[10:26:16] Bootstrap tree #33, logLikelihood: -59778.778672
[10:44:38] Bootstrap tree #34, logLikelihood: -60096.944886
[11:05:36] Bootstrap tree #35, logLikelihood: -59258.879338
[11:23:21] Bootstrap tree #36, logLikelihood: -59748.492971
[11:40:47] Bootstrap tree #37, logLikelihood: -59559.809258
[11:58:16] Bootstrap tree #38, logLikelihood: -59768.137984
[12:17:09] Bootstrap tree #39, logLikelihood: -60327.396118
[12:34:04] Bootstrap tree #40, logLikelihood: -59718.288147
[12:52:07] Bootstrap tree #41, logLikelihood: -59910.686368
[13:11:45] Bootstrap tree #42, logLikelihood: -59336.945244
[13:32:35] Bootstrap tree #43, logLikelihood: -59750.212874
[13:50:15] Bootstrap tree #44, logLikelihood: -59942.965131
[14:08:29] Bootstrap tree #45, logLikelihood: -59521.666420
[14:34:18] Bootstrap tree #46, logLikelihood: -59399.467406
[14:52:04] Bootstrap tree #47, logLikelihood: -59958.545034
[15:10:05] Bootstrap tree #48, logLikelihood: -59959.723559
[15:28:13] Bootstrap tree #49, logLikelihood: -59958.819064
[15:47:49] Bootstrap tree #50, logLikelihood: -59740.228869
[16:11:14] Bootstrap tree #51, logLikelihood: -59828.016419
[16:30:31] Bootstrap tree #52, logLikelihood: -59669.325299
[16:48:21] Bootstrap tree #53, logLikelihood: -60214.944105
[17:07:59] Bootstrap tree #54, logLikelihood: -59788.210318
[17:27:01] Bootstrap tree #55, logLikelihood: -59876.737935
[17:45:56] Bootstrap tree #56, logLikelihood: -59853.711440
[18:02:55] Bootstrap tree #57, logLikelihood: -59323.163811
[18:19:05] Bootstrap tree #58, logLikelihood: -59393.981650
[18:36:04] Bootstrap tree #59, logLikelihood: -59173.124123
[19:00:06] Bootstrap tree #60, logLikelihood: -59855.980201
[19:18:20] Bootstrap tree #61, logLikelihood: -59285.588925
[19:38:46] Bootstrap tree #62, logLikelihood: -59966.480833
[19:58:39] Bootstrap tree #63, logLikelihood: -59447.180042
[20:20:06] Bootstrap tree #64, logLikelihood: -59445.966180
[20:39:36] Bootstrap tree #65, logLikelihood: -59352.156407
[20:57:48] Bootstrap tree #66, logLikelihood: -59248.344819
[21:16:39] Bootstrap tree #67, logLikelihood: -59920.974093
[21:34:16] Bootstrap tree #68, logLikelihood: -59794.731889
[21:52:32] Bootstrap tree #69, logLikelihood: -59392.843677
[22:09:23] Bootstrap tree #70, logLikelihood: -59800.917752
[22:27:04] Bootstrap tree #71, logLikelihood: -59641.456135
[22:45:30] Bootstrap tree #72, logLikelihood: -59738.575845
[23:04:47] Bootstrap tree #73, logLikelihood: -59384.643916
[23:24:10] Bootstrap tree #74, logLikelihood: -59818.428557
[23:43:53] Bootstrap tree #75, logLikelihood: -59583.795538
[24:12:01] Bootstrap tree #76, logLikelihood: -59558.538165
[24:30:52] Bootstrap tree #77, logLikelihood: -59834.759698
[24:55:13] Bootstrap tree #78, logLikelihood: -60533.025561
[25:13:09] Bootstrap tree #79, logLikelihood: -59708.141397
[25:29:08] Bootstrap tree #80, logLikelihood: -59795.380075
[25:52:52] Bootstrap tree #81, logLikelihood: -59848.040866
[26:14:57] Bootstrap tree #82, logLikelihood: -59651.123936
[26:33:41] Bootstrap tree #83, logLikelihood: -60171.964475

Bootstrap trees saved to: /home/hikoyu/analysis/Genome/SARS-CoV-2/phylogeny/RAxML-NG/DNA/part/3rd/SARS-CoV-2_200414.7.raxml.bootstraps

Execution log saved to: /home/hikoyu/analysis/Genome/SARS-CoV-2/phylogeny/RAxML-NG/DNA/part/3rd/SARS-CoV-2_200414.7.raxml.log

Analysis started: 21-Apr-2020 19:22:25 / finished: 22-Apr-2020 21:56:07

Elapsed time: 95621.645 seconds

