
RAxML-NG v. 0.9.0 released on 20.05.2019 by The Exelixis Lab.
Developed by: Alexey M. Kozlov and Alexandros Stamatakis.
Contributors: Diego Darriba, Tomas Flouri, Benoit Morel, Sarah Lutteropp, Ben Bettisworth.
Latest version: https://github.com/amkozlov/raxml-ng
Questions/problems/suggestions? Please visit: https://groups.google.com/forum/#!forum/raxml

RAxML-NG was called at 21-Apr-2020 18:45:21 as follows:

raxml-ng --threads 1 --bootstrap --bs-trees 83 --seed 2152123166 --prefix phylogeny/RAxML-NG/DNA/part/3rd/SARS-CoV-2_200414.6 --msa phylogeny/RAxML-NG/DNA/part/3rd/SARS-CoV-2_200414.raxml.rba --outgroup MG772933.1

Analysis options:
  run mode: Bootstrapping
  start tree(s): 
  bootstrap replicates: 83
  random seed: 2152123166
  tip-inner: OFF
  pattern compression: ON
  per-rate scalers: OFF
  site repeats: ON
  branch lengths: proportional (ML estimate, algorithm: NR-FAST)
  SIMD kernels: AVX2
  parallelization: NONE/sequential

[00:00:00] Loading binary alignment from file: phylogeny/RAxML-NG/DNA/part/3rd/SARS-CoV-2_200414.raxml.rba
[00:00:00] Alignment comprises 376 taxa, 22 partitions and 992 patterns

Partition 0: orf1ab_U
Model: TN93+FO+I+G4m+B
Alignment sites / patterns: 8808 / 175
Gaps: 0.07 %
Invariant sites: 95.32 %

Partition 1: orf1ab_U_p3
Model: GTR+FO+I+G4m+B
Alignment sites / patterns: 4404 / 152
Gaps: 0.07 %
Invariant sites: 73.14 %

Partition 2: orf1ab_D
Model: TIM1+I+G4m+B
Alignment sites / patterns: 5398 / 88
Gaps: 0.11 %
Invariant sites: 95.15 %

Partition 3: orf1ab_D_p3
Model: GTR+FO+G4m+B
Alignment sites / patterns: 2699 / 99
Gaps: 0.11 %
Invariant sites: 62.13 %

Partition 4: S
Model: TN93+FO+I+G4m+B
Alignment sites / patterns: 2548 / 74
Gaps: 0.01 %
Invariant sites: 86.34 %

Partition 5: S_p3
Model: HKY+FO+G4m+B
Alignment sites / patterns: 1274 / 93
Gaps: 0.01 %
Invariant sites: 49.76 %

Partition 6: ORF3a
Model: TVMef+I+G4m+B
Alignment sites / patterns: 552 / 35
Gaps: 0.00 %
Invariant sites: 91.85 %

Partition 7: ORF3a_p3
Model: GTR+FO+I+G4m+B
Alignment sites / patterns: 276 / 30
Gaps: 0.00 %
Invariant sites: 69.93 %

Partition 8: E
Model: JC+B
Alignment sites / patterns: 152 / 8
Gaps: 0.00 %
Invariant sites: 97.37 %

Partition 9: E_p3
Model: JC+B
Alignment sites / patterns: 76 / 7
Gaps: 0.00 %
Invariant sites: 96.05 %

Partition 10: M
Model: K80+I+B
Alignment sites / patterns: 446 / 15
Gaps: 0.00 %
Invariant sites: 96.64 %

Partition 11: M_p3
Model: K80+I+G4m+B
Alignment sites / patterns: 223 / 29
Gaps: 0.00 %
Invariant sites: 77.58 %

Partition 12: ORF6
Model: JC+B
Alignment sites / patterns: 124 / 8
Gaps: 0.00 %
Invariant sites: 95.16 %

Partition 13: ORF6_p3
Model: TN93ef+G4m+B
Alignment sites / patterns: 62 / 13
Gaps: 0.00 %
Invariant sites: 82.26 %

Partition 14: ORF7a
Model: K80+B
Alignment sites / patterns: 244 / 17
Gaps: 0.00 %
Invariant sites: 90.57 %

Partition 15: ORF7a_p3
Model: HKY+FO+G4m+B
Alignment sites / patterns: 122 / 19
Gaps: 0.00 %
Invariant sites: 76.23 %

Partition 16: ORF8
Model: TIM1+I+G4m+B
Alignment sites / patterns: 244 / 22
Gaps: 0.00 %
Invariant sites: 93.44 %

Partition 17: ORF8_p3
Model: HKY+FO+B
Alignment sites / patterns: 122 / 18
Gaps: 0.00 %
Invariant sites: 68.85 %

Partition 18: N
Model: HKY+FO+I+G4m+B
Alignment sites / patterns: 840 / 36
Gaps: 0.00 %
Invariant sites: 94.05 %

Partition 19: N_p3
Model: HKY+FO+G4m+B
Alignment sites / patterns: 420 / 41
Gaps: 0.00 %
Invariant sites: 74.52 %

Partition 20: ORF10
Model: JC+B
Alignment sites / patterns: 78 / 8
Gaps: 0.00 %
Invariant sites: 94.87 %

Partition 21: ORF10_p3
Model: JC+B
Alignment sites / patterns: 39 / 5
Gaps: 0.00 %
Invariant sites: 97.44 %


[00:00:00] Data distribution: max. partitions/sites/weight per thread: 22 / 992 / 14840
[00:00:00] Starting bootstrapping analysis with 83 replicates.

[00:16:45] Bootstrap tree #1, logLikelihood: -59467.604136
[00:36:07] Bootstrap tree #2, logLikelihood: -59939.658965
[00:53:14] Bootstrap tree #3, logLikelihood: -59689.753593
[01:13:52] Bootstrap tree #4, logLikelihood: -60107.727142
[01:33:14] Bootstrap tree #5, logLikelihood: -60186.925008
[01:55:04] Bootstrap tree #6, logLikelihood: -60142.363631
[02:13:44] Bootstrap tree #7, logLikelihood: -59469.481640
[02:42:09] Bootstrap tree #8, logLikelihood: -59970.676684
[02:59:09] Bootstrap tree #9, logLikelihood: -60026.932952
[03:17:16] Bootstrap tree #10, logLikelihood: -59583.979824
[03:34:19] Bootstrap tree #11, logLikelihood: -60638.602964
[03:57:56] Bootstrap tree #12, logLikelihood: -59256.369892
[04:21:19] Bootstrap tree #13, logLikelihood: -59525.100380
[04:38:08] Bootstrap tree #14, logLikelihood: -59664.488637
[04:55:19] Bootstrap tree #15, logLikelihood: -60133.164913
[05:21:21] Bootstrap tree #16, logLikelihood: -59633.184150
[05:38:51] Bootstrap tree #17, logLikelihood: -60247.745716
[05:56:09] Bootstrap tree #18, logLikelihood: -59548.222080
[06:14:00] Bootstrap tree #19, logLikelihood: -59705.739477
[06:30:59] Bootstrap tree #20, logLikelihood: -59448.196643
[06:55:15] Bootstrap tree #21, logLikelihood: -59758.815682
[07:14:15] Bootstrap tree #22, logLikelihood: -59734.560570
[07:33:50] Bootstrap tree #23, logLikelihood: -60020.205001
[07:51:36] Bootstrap tree #24, logLikelihood: -59971.705956
[08:15:35] Bootstrap tree #25, logLikelihood: -59761.925039
[08:38:27] Bootstrap tree #26, logLikelihood: -59403.644529
[08:55:14] Bootstrap tree #27, logLikelihood: -59782.218726
[09:13:34] Bootstrap tree #28, logLikelihood: -59696.649233
[09:34:57] Bootstrap tree #29, logLikelihood: -59574.216324
[09:53:46] Bootstrap tree #30, logLikelihood: -59775.766305
[10:12:42] Bootstrap tree #31, logLikelihood: -59633.965838
[10:28:59] Bootstrap tree #32, logLikelihood: -59978.881757
[10:47:25] Bootstrap tree #33, logLikelihood: -59756.046354
[11:05:37] Bootstrap tree #34, logLikelihood: -59456.600536
[11:24:42] Bootstrap tree #35, logLikelihood: -59867.905083
[11:45:24] Bootstrap tree #36, logLikelihood: -59993.507768
[12:01:43] Bootstrap tree #37, logLikelihood: -59253.751426
[12:18:51] Bootstrap tree #38, logLikelihood: -59848.141144
[12:43:40] Bootstrap tree #39, logLikelihood: -60283.242040
[13:20:33] Bootstrap tree #40, logLikelihood: -59283.640243
[13:37:53] Bootstrap tree #41, logLikelihood: -59957.842342
[13:57:04] Bootstrap tree #42, logLikelihood: -59754.410707
[14:15:12] Bootstrap tree #43, logLikelihood: -59039.952167
[14:33:35] Bootstrap tree #44, logLikelihood: -60095.820648
[14:56:47] Bootstrap tree #45, logLikelihood: -60028.176808
[15:17:51] Bootstrap tree #46, logLikelihood: -59548.957187
[15:34:54] Bootstrap tree #47, logLikelihood: -60003.374985
[15:58:37] Bootstrap tree #48, logLikelihood: -59604.352616
[16:16:52] Bootstrap tree #49, logLikelihood: -59918.211555
[16:32:51] Bootstrap tree #50, logLikelihood: -59387.516085
[16:49:09] Bootstrap tree #51, logLikelihood: -59811.909134
[17:16:18] Bootstrap tree #52, logLikelihood: -60502.675701
[17:36:50] Bootstrap tree #53, logLikelihood: -59220.228661
[17:55:52] Bootstrap tree #54, logLikelihood: -59330.786998
[18:19:02] Bootstrap tree #55, logLikelihood: -59934.567063
[18:41:33] Bootstrap tree #56, logLikelihood: -59961.812096
[18:58:01] Bootstrap tree #57, logLikelihood: -59632.751246
[19:15:09] Bootstrap tree #58, logLikelihood: -59956.663906
[19:33:17] Bootstrap tree #59, logLikelihood: -59563.074454
[19:51:15] Bootstrap tree #60, logLikelihood: -59432.645326
[20:10:55] Bootstrap tree #61, logLikelihood: -60056.482888
[20:29:22] Bootstrap tree #62, logLikelihood: -59496.786796
[20:48:06] Bootstrap tree #63, logLikelihood: -59561.838177
[21:08:00] Bootstrap tree #64, logLikelihood: -60250.502128
[21:31:16] Bootstrap tree #65, logLikelihood: -59522.588881
[21:59:20] Bootstrap tree #66, logLikelihood: -59397.674363
[22:19:26] Bootstrap tree #67, logLikelihood: -60261.388391
[22:37:50] Bootstrap tree #68, logLikelihood: -59645.953899
[22:57:50] Bootstrap tree #69, logLikelihood: -59803.854008
[23:15:21] Bootstrap tree #70, logLikelihood: -59777.635220
[23:34:51] Bootstrap tree #71, logLikelihood: -60066.694221
[24:01:26] Bootstrap tree #72, logLikelihood: -59791.639227
[24:20:30] Bootstrap tree #73, logLikelihood: -59933.473611
[24:40:01] Bootstrap tree #74, logLikelihood: -59799.911843
[24:59:35] Bootstrap tree #75, logLikelihood: -59296.825597
[25:19:56] Bootstrap tree #76, logLikelihood: -59703.288977
[25:36:06] Bootstrap tree #77, logLikelihood: -60233.087535
[26:01:55] Bootstrap tree #78, logLikelihood: -59678.466594
[26:19:54] Bootstrap tree #79, logLikelihood: -60020.869415
[26:38:44] Bootstrap tree #80, logLikelihood: -59254.960965
[26:56:50] Bootstrap tree #81, logLikelihood: -59727.440541
[27:15:26] Bootstrap tree #82, logLikelihood: -59834.892164
[27:33:48] Bootstrap tree #83, logLikelihood: -59020.160635

Bootstrap trees saved to: /home/hikoyu/analysis/Genome/SARS-CoV-2/phylogeny/RAxML-NG/DNA/part/3rd/SARS-CoV-2_200414.6.raxml.bootstraps

Execution log saved to: /home/hikoyu/analysis/Genome/SARS-CoV-2/phylogeny/RAxML-NG/DNA/part/3rd/SARS-CoV-2_200414.6.raxml.log

Analysis started: 21-Apr-2020 18:45:21 / finished: 22-Apr-2020 22:19:10

Elapsed time: 99228.508 seconds

