
RAxML-NG v. 0.9.0 released on 20.05.2019 by The Exelixis Lab.
Developed by: Alexey M. Kozlov and Alexandros Stamatakis.
Contributors: Diego Darriba, Tomas Flouri, Benoit Morel, Sarah Lutteropp, Ben Bettisworth.
Latest version: https://github.com/amkozlov/raxml-ng
Questions/problems/suggestions? Please visit: https://groups.google.com/forum/#!forum/raxml

RAxML-NG was called at 20-Apr-2020 11:02:13 as follows:

raxml-ng --threads 1 --search --tree rand{8},pars{8} --seed 328423362 --prefix phylogeny/RAxML-NG/DNA/part/3rd/SARS-CoV-2_200414.11 --msa phylogeny/RAxML-NG/DNA/part/3rd/SARS-CoV-2_200414.raxml.rba --outgroup MG772933.1

Analysis options:
  run mode: ML tree search
  start tree(s): random (8) + parsimony (8)
  random seed: 328423362
  tip-inner: OFF
  pattern compression: ON
  per-rate scalers: OFF
  site repeats: ON
  fast spr radius: AUTO
  spr subtree cutoff: 1.000000
  branch lengths: proportional (ML estimate, algorithm: NR-FAST)
  SIMD kernels: AVX2
  parallelization: NONE/sequential

[00:00:00] Loading binary alignment from file: phylogeny/RAxML-NG/DNA/part/3rd/SARS-CoV-2_200414.raxml.rba
[00:00:00] Alignment comprises 376 taxa, 22 partitions and 992 patterns

Partition 0: orf1ab_U
Model: TN93+FO+I+G4m+B
Alignment sites / patterns: 8808 / 175
Gaps: 0.07 %
Invariant sites: 95.32 %

Partition 1: orf1ab_U_p3
Model: GTR+FO+I+G4m+B
Alignment sites / patterns: 4404 / 152
Gaps: 0.07 %
Invariant sites: 73.14 %

Partition 2: orf1ab_D
Model: TIM1+I+G4m+B
Alignment sites / patterns: 5398 / 88
Gaps: 0.11 %
Invariant sites: 95.15 %

Partition 3: orf1ab_D_p3
Model: GTR+FO+G4m+B
Alignment sites / patterns: 2699 / 99
Gaps: 0.11 %
Invariant sites: 62.13 %

Partition 4: S
Model: TN93+FO+I+G4m+B
Alignment sites / patterns: 2548 / 74
Gaps: 0.01 %
Invariant sites: 86.34 %

Partition 5: S_p3
Model: HKY+FO+G4m+B
Alignment sites / patterns: 1274 / 93
Gaps: 0.01 %
Invariant sites: 49.76 %

Partition 6: ORF3a
Model: TVMef+I+G4m+B
Alignment sites / patterns: 552 / 35
Gaps: 0.00 %
Invariant sites: 91.85 %

Partition 7: ORF3a_p3
Model: GTR+FO+I+G4m+B
Alignment sites / patterns: 276 / 30
Gaps: 0.00 %
Invariant sites: 69.93 %

Partition 8: E
Model: JC+B
Alignment sites / patterns: 152 / 8
Gaps: 0.00 %
Invariant sites: 97.37 %

Partition 9: E_p3
Model: JC+B
Alignment sites / patterns: 76 / 7
Gaps: 0.00 %
Invariant sites: 96.05 %

Partition 10: M
Model: K80+I+B
Alignment sites / patterns: 446 / 15
Gaps: 0.00 %
Invariant sites: 96.64 %

Partition 11: M_p3
Model: K80+I+G4m+B
Alignment sites / patterns: 223 / 29
Gaps: 0.00 %
Invariant sites: 77.58 %

Partition 12: ORF6
Model: JC+B
Alignment sites / patterns: 124 / 8
Gaps: 0.00 %
Invariant sites: 95.16 %

Partition 13: ORF6_p3
Model: TN93ef+G4m+B
Alignment sites / patterns: 62 / 13
Gaps: 0.00 %
Invariant sites: 82.26 %

Partition 14: ORF7a
Model: K80+B
Alignment sites / patterns: 244 / 17
Gaps: 0.00 %
Invariant sites: 90.57 %

Partition 15: ORF7a_p3
Model: HKY+FO+G4m+B
Alignment sites / patterns: 122 / 19
Gaps: 0.00 %
Invariant sites: 76.23 %

Partition 16: ORF8
Model: TIM1+I+G4m+B
Alignment sites / patterns: 244 / 22
Gaps: 0.00 %
Invariant sites: 93.44 %

Partition 17: ORF8_p3
Model: HKY+FO+B
Alignment sites / patterns: 122 / 18
Gaps: 0.00 %
Invariant sites: 68.85 %

Partition 18: N
Model: HKY+FO+I+G4m+B
Alignment sites / patterns: 840 / 36
Gaps: 0.00 %
Invariant sites: 94.05 %

Partition 19: N_p3
Model: HKY+FO+G4m+B
Alignment sites / patterns: 420 / 41
Gaps: 0.00 %
Invariant sites: 74.52 %

Partition 20: ORF10
Model: JC+B
Alignment sites / patterns: 78 / 8
Gaps: 0.00 %
Invariant sites: 94.87 %

Partition 21: ORF10_p3
Model: JC+B
Alignment sites / patterns: 39 / 5
Gaps: 0.00 %
Invariant sites: 97.44 %


[00:00:00] Generating 8 random starting tree(s) with 376 taxa
[00:00:00] Generating 8 parsimony starting tree(s) with 376 taxa
[00:00:03] Data distribution: max. partitions/sites/weight per thread: 22 / 992 / 14840

Starting ML tree search with 16 distinct starting trees

[00:00:03 -252047.799080] Initial branch length optimization
[00:00:05 -74540.082183] Model parameter optimization (eps = 10.000000)
[00:01:37 -67069.280997] AUTODETECT spr round 1 (radius: 5)
[00:02:02 -63864.862745] AUTODETECT spr round 2 (radius: 10)
[00:02:39 -62516.648414] AUTODETECT spr round 3 (radius: 15)
[00:03:28 -61654.797537] AUTODETECT spr round 4 (radius: 20)
[00:04:31 -61467.907552] AUTODETECT spr round 5 (radius: 25)
[00:05:33 -61413.372279] SPR radius for FAST iterations: 25 (autodetect)
[00:05:33 -61413.372279] Model parameter optimization (eps = 3.000000)
[00:07:12 -60574.855161] FAST spr round 1 (radius: 25)
[00:09:19 -60098.809915] FAST spr round 2 (radius: 25)
[00:10:55 -60010.652750] FAST spr round 3 (radius: 25)
[00:12:08 -60010.514752] FAST spr round 4 (radius: 25)
[00:13:01 -60010.513568] Model parameter optimization (eps = 1.000000)
[00:14:03 -59948.241651] SLOW spr round 1 (radius: 5)
[00:14:52 -59948.195688] SLOW spr round 2 (radius: 10)
[00:15:56 -59947.646006] SLOW spr round 3 (radius: 5)
[00:16:47 -59947.607497] SLOW spr round 4 (radius: 10)
[00:17:52 -59947.607389] SLOW spr round 5 (radius: 15)
[00:19:05 -59947.607387] SLOW spr round 6 (radius: 20)
[00:20:24 -59947.607387] SLOW spr round 7 (radius: 25)
[00:21:40 -59947.607387] Model parameter optimization (eps = 0.100000)

[00:22:07] ML tree search #1, logLikelihood: -59946.281862

[00:22:07 -252059.335218] Initial branch length optimization
[00:22:09 -74660.723325] Model parameter optimization (eps = 10.000000)
[00:23:51 -67085.116268] AUTODETECT spr round 1 (radius: 5)
[00:24:22 -63553.436869] AUTODETECT spr round 2 (radius: 10)
[00:25:04 -62400.846563] AUTODETECT spr round 3 (radius: 15)
[00:25:51 -61715.983084] AUTODETECT spr round 4 (radius: 20)
[00:26:49 -61406.523648] AUTODETECT spr round 5 (radius: 25)
[00:27:52 -61342.510693] SPR radius for FAST iterations: 25 (autodetect)
[00:27:52 -61342.510693] Model parameter optimization (eps = 3.000000)
[00:29:49 -60492.587776] FAST spr round 1 (radius: 25)
[00:31:45 -59978.505850] FAST spr round 2 (radius: 25)
[00:32:54 -59972.446512] FAST spr round 3 (radius: 25)
[00:33:42 -59972.443121] Model parameter optimization (eps = 1.000000)
[00:34:26 -59947.291956] SLOW spr round 1 (radius: 5)
[00:35:15 -59947.248874] SLOW spr round 2 (radius: 10)
[00:36:15 -59947.248375] SLOW spr round 3 (radius: 15)
[00:37:15 -59947.248367] SLOW spr round 4 (radius: 20)
[00:38:21 -59947.248367] SLOW spr round 5 (radius: 25)
[00:39:28 -59947.248367] Model parameter optimization (eps = 0.100000)

[00:39:48] ML tree search #2, logLikelihood: -59946.300698

[00:39:48 -252073.715525] Initial branch length optimization
[00:39:49 -74523.699301] Model parameter optimization (eps = 10.000000)
[00:41:19 -67044.854216] AUTODETECT spr round 1 (radius: 5)
[00:41:48 -63511.722354] AUTODETECT spr round 2 (radius: 10)
[00:42:23 -62300.180247] AUTODETECT spr round 3 (radius: 15)
[00:43:07 -61759.497435] AUTODETECT spr round 4 (radius: 20)
[00:43:58 -61578.204046] AUTODETECT spr round 5 (radius: 25)
[00:44:52 -61394.803083] SPR radius for FAST iterations: 25 (autodetect)
[00:44:52 -61394.803083] Model parameter optimization (eps = 3.000000)
[00:46:35 -60529.476389] FAST spr round 1 (radius: 25)
[00:48:25 -60000.186917] FAST spr round 2 (radius: 25)
[00:49:35 -59978.763365] FAST spr round 3 (radius: 25)
[00:50:28 -59978.717220] Model parameter optimization (eps = 1.000000)
[00:51:12 -59948.323233] SLOW spr round 1 (radius: 5)
[00:51:59 -59947.358168] SLOW spr round 2 (radius: 5)
[00:52:44 -59947.357028] SLOW spr round 3 (radius: 10)
[00:53:39 -59947.356683] SLOW spr round 4 (radius: 15)
[00:54:47 -59947.356683] SLOW spr round 5 (radius: 20)
[00:56:13 -59947.355850] SLOW spr round 6 (radius: 25)
[00:57:39 -59947.355850] Model parameter optimization (eps = 0.100000)

[00:58:01] ML tree search #3, logLikelihood: -59946.334989

[00:58:01 -251960.538057] Initial branch length optimization
[00:58:03 -74275.999179] Model parameter optimization (eps = 10.000000)
[00:59:28 -66929.558880] AUTODETECT spr round 1 (radius: 5)
[00:59:56 -63562.874795] AUTODETECT spr round 2 (radius: 10)
[01:00:36 -62227.259345] AUTODETECT spr round 3 (radius: 15)
[01:01:27 -61554.245327] AUTODETECT spr round 4 (radius: 20)
[01:02:21 -61392.979658] AUTODETECT spr round 5 (radius: 25)
[01:03:14 -61341.968546] SPR radius for FAST iterations: 25 (autodetect)
[01:03:14 -61341.968546] Model parameter optimization (eps = 3.000000)
[01:04:50 -60559.071820] FAST spr round 1 (radius: 25)
[01:06:43 -60097.460981] FAST spr round 2 (radius: 25)
[01:07:54 -60089.021768] FAST spr round 3 (radius: 25)
[01:08:49 -60080.278118] FAST spr round 4 (radius: 25)
[01:09:38 -60018.695409] FAST spr round 5 (radius: 25)
[01:10:27 -60018.619713] Model parameter optimization (eps = 1.000000)
[01:11:37 -59947.829306] SLOW spr round 1 (radius: 5)
[01:12:27 -59947.783043] SLOW spr round 2 (radius: 10)
[01:13:28 -59947.782637] SLOW spr round 3 (radius: 15)
[01:14:33 -59947.782631] SLOW spr round 4 (radius: 20)
[01:15:48 -59947.782631] SLOW spr round 5 (radius: 25)
[01:17:02 -59947.782631] Model parameter optimization (eps = 0.100000)

[01:17:19] ML tree search #4, logLikelihood: -59947.053784

[01:17:19 -252131.846470] Initial branch length optimization
[01:17:21 -74767.427968] Model parameter optimization (eps = 10.000000)
[01:19:02 -67166.495256] AUTODETECT spr round 1 (radius: 5)
[01:19:32 -63874.790461] AUTODETECT spr round 2 (radius: 10)
[01:20:12 -62459.387291] AUTODETECT spr round 3 (radius: 15)
[01:21:00 -61878.784025] AUTODETECT spr round 4 (radius: 20)
[01:21:57 -61558.436453] AUTODETECT spr round 5 (radius: 25)
[01:22:52 -61499.996792] SPR radius for FAST iterations: 25 (autodetect)
[01:22:52 -61499.996792] Model parameter optimization (eps = 3.000000)
[01:24:31 -60633.005765] FAST spr round 1 (radius: 25)
[01:26:17 -60048.181148] FAST spr round 2 (radius: 25)
[01:27:32 -60031.755159] FAST spr round 3 (radius: 25)
[01:28:31 -60022.722150] FAST spr round 4 (radius: 25)
[01:29:20 -60022.722150] Model parameter optimization (eps = 1.000000)
[01:30:26 -59948.110600] SLOW spr round 1 (radius: 5)
[01:31:14 -59947.155807] SLOW spr round 2 (radius: 5)
[01:31:58 -59947.154779] SLOW spr round 3 (radius: 10)
[01:32:53 -59947.154764] SLOW spr round 4 (radius: 15)
[01:33:50 -59947.154763] SLOW spr round 5 (radius: 20)
[01:35:03 -59947.154763] SLOW spr round 6 (radius: 25)
[01:36:14 -59947.154428] Model parameter optimization (eps = 0.100000)

[01:36:38] ML tree search #5, logLikelihood: -59946.240475

[01:36:38 -252040.775866] Initial branch length optimization
[01:36:40 -74428.657629] Model parameter optimization (eps = 10.000000)
[01:38:03 -66983.810335] AUTODETECT spr round 1 (radius: 5)
[01:38:33 -63782.933412] AUTODETECT spr round 2 (radius: 10)
[01:39:12 -62419.164078] AUTODETECT spr round 3 (radius: 15)
[01:39:55 -61986.193309] AUTODETECT spr round 4 (radius: 20)
[01:40:51 -61543.659137] AUTODETECT spr round 5 (radius: 25)
[01:41:44 -61361.114772] SPR radius for FAST iterations: 25 (autodetect)
[01:41:44 -61361.114772] Model parameter optimization (eps = 3.000000)
[01:43:23 -60582.873870] FAST spr round 1 (radius: 25)
[01:45:13 -60019.935837] FAST spr round 2 (radius: 25)
[01:46:23 -60008.387882] FAST spr round 3 (radius: 25)
[01:47:16 -60008.387652] Model parameter optimization (eps = 1.000000)
[01:48:14 -59949.244731] SLOW spr round 1 (radius: 5)
[01:49:01 -59947.613544] SLOW spr round 2 (radius: 5)
[01:49:46 -59947.612338] SLOW spr round 3 (radius: 10)
[01:50:47 -59947.612319] SLOW spr round 4 (radius: 15)
[01:51:54 -59947.612318] SLOW spr round 5 (radius: 20)
[01:53:07 -59947.612318] SLOW spr round 6 (radius: 25)
[01:54:17 -59947.612318] Model parameter optimization (eps = 0.100000)

[01:54:41] ML tree search #6, logLikelihood: -59946.297932

[01:54:41 -252006.144932] Initial branch length optimization
[01:54:43 -74477.899078] Model parameter optimization (eps = 10.000000)
[01:55:58 -67038.773391] AUTODETECT spr round 1 (radius: 5)
[01:56:28 -63588.743480] AUTODETECT spr round 2 (radius: 10)
[01:57:07 -62393.520102] AUTODETECT spr round 3 (radius: 15)
[01:57:56 -61516.829718] AUTODETECT spr round 4 (radius: 20)
[01:58:54 -61349.525845] AUTODETECT spr round 5 (radius: 25)
[01:59:51 -61185.378338] SPR radius for FAST iterations: 25 (autodetect)
[01:59:51 -61185.378338] Model parameter optimization (eps = 3.000000)
[02:01:25 -60464.128393] FAST spr round 1 (radius: 25)
[02:03:23 -60079.491278] FAST spr round 2 (radius: 25)
[02:04:49 -60002.654708] FAST spr round 3 (radius: 25)
[02:06:01 -60002.580411] Model parameter optimization (eps = 1.000000)
[02:07:00 -59948.097581] SLOW spr round 1 (radius: 5)
[02:07:50 -59948.054728] SLOW spr round 2 (radius: 10)
[02:08:47 -59948.054245] SLOW spr round 3 (radius: 15)
[02:09:55 -59948.054238] SLOW spr round 4 (radius: 20)
[02:11:20 -59948.054238] SLOW spr round 5 (radius: 25)
[02:12:38 -59948.054238] Model parameter optimization (eps = 0.100000)

[02:13:02] ML tree search #7, logLikelihood: -59947.011424

[02:13:02 -252060.363465] Initial branch length optimization
[02:13:04 -74533.156126] Model parameter optimization (eps = 10.000000)
[02:14:38 -67020.922239] AUTODETECT spr round 1 (radius: 5)
[02:15:08 -63846.372305] AUTODETECT spr round 2 (radius: 10)
[02:15:49 -62589.712854] AUTODETECT spr round 3 (radius: 15)
[02:16:38 -61794.413904] AUTODETECT spr round 4 (radius: 20)
[02:17:28 -61552.914267] AUTODETECT spr round 5 (radius: 25)
[02:18:17 -61511.652483] SPR radius for FAST iterations: 25 (autodetect)
[02:18:17 -61511.652483] Model parameter optimization (eps = 3.000000)
[02:20:02 -60594.993215] FAST spr round 1 (radius: 25)
[02:21:52 -59990.992008] FAST spr round 2 (radius: 25)
[02:23:03 -59982.627469] FAST spr round 3 (radius: 25)
[02:23:55 -59982.627445] Model parameter optimization (eps = 1.000000)
[02:24:52 -59947.797897] SLOW spr round 1 (radius: 5)
[02:25:41 -59947.754252] SLOW spr round 2 (radius: 10)
[02:26:37 -59947.753851] SLOW spr round 3 (radius: 15)
[02:27:40 -59947.753845] SLOW spr round 4 (radius: 20)
[02:29:00 -59947.753845] SLOW spr round 5 (radius: 25)
[02:30:17 -59947.753845] Model parameter optimization (eps = 0.100000)

[02:30:35] ML tree search #8, logLikelihood: -59947.048454

[02:30:35 -244463.647573] Initial branch length optimization
[02:30:36 -63121.150291] Model parameter optimization (eps = 10.000000)
[02:31:02 -59962.337946] AUTODETECT spr round 1 (radius: 5)
[02:31:30 -59953.122047] AUTODETECT spr round 2 (radius: 10)
[02:32:06 -59953.085733] SPR radius for FAST iterations: 5 (autodetect)
[02:32:06 -59953.085733] Model parameter optimization (eps = 3.000000)
[02:32:13 -59952.077945] FAST spr round 1 (radius: 5)
[02:32:48 -59952.024559] Model parameter optimization (eps = 1.000000)
[02:32:54 -59951.697391] SLOW spr round 1 (radius: 5)
[02:33:43 -59951.648550] SLOW spr round 2 (radius: 10)
[02:34:33 -59951.648424] SLOW spr round 3 (radius: 15)
[02:35:27 -59951.634017] SLOW spr round 4 (radius: 20)
[02:36:26 -59951.634017] SLOW spr round 5 (radius: 25)
[02:37:20 -59951.634017] Model parameter optimization (eps = 0.100000)

[02:37:31] ML tree search #9, logLikelihood: -59951.449932

[02:37:31 -244465.498712] Initial branch length optimization
[02:37:33 -63118.317845] Model parameter optimization (eps = 10.000000)
[02:38:00 -59957.513938] AUTODETECT spr round 1 (radius: 5)
[02:38:27 -59955.954726] AUTODETECT spr round 2 (radius: 10)
[02:39:01 -59952.381831] AUTODETECT spr round 3 (radius: 15)
[02:39:41 -59949.611058] AUTODETECT spr round 4 (radius: 20)
[02:40:25 -59949.611058] SPR radius for FAST iterations: 15 (autodetect)
[02:40:25 -59949.611058] Model parameter optimization (eps = 3.000000)
[02:40:32 -59948.345100] FAST spr round 1 (radius: 15)
[02:41:32 -59948.281026] Model parameter optimization (eps = 1.000000)
[02:41:38 -59947.728052] SLOW spr round 1 (radius: 5)
[02:42:34 -59947.675733] SLOW spr round 2 (radius: 10)
[02:43:31 -59947.373147] SLOW spr round 3 (radius: 5)
[02:44:19 -59947.372198] SLOW spr round 4 (radius: 10)
[02:45:16 -59947.372198] SLOW spr round 5 (radius: 15)
[02:46:16 -59947.357798] SLOW spr round 6 (radius: 20)
[02:47:25 -59947.357798] SLOW spr round 7 (radius: 25)
[02:48:30 -59947.357798] Model parameter optimization (eps = 0.100000)

[02:48:51] ML tree search #10, logLikelihood: -59946.618701

[02:48:51 -244458.217259] Initial branch length optimization
[02:48:52 -63116.145790] Model parameter optimization (eps = 10.000000)
[02:49:19 -59956.450815] AUTODETECT spr round 1 (radius: 5)
[02:49:47 -59953.163153] AUTODETECT spr round 2 (radius: 10)
[02:50:23 -59953.128764] SPR radius for FAST iterations: 5 (autodetect)
[02:50:23 -59953.128764] Model parameter optimization (eps = 3.000000)
[02:50:29 -59952.130392] FAST spr round 1 (radius: 5)
[02:51:03 -59952.076633] Model parameter optimization (eps = 1.000000)
[02:51:09 -59951.706361] SLOW spr round 1 (radius: 5)
[02:52:01 -59951.328447] SLOW spr round 2 (radius: 5)
[02:52:49 -59951.325667] SLOW spr round 3 (radius: 10)
[02:53:42 -59951.324794] SLOW spr round 4 (radius: 15)
[02:54:40 -59951.322093] SLOW spr round 5 (radius: 20)
[02:55:49 -59947.575936] SLOW spr round 6 (radius: 5)
[02:56:47 -59947.538399] SLOW spr round 7 (radius: 10)
[02:57:38 -59947.538285] SLOW spr round 8 (radius: 15)
[02:58:34 -59947.538284] SLOW spr round 9 (radius: 20)
[02:59:40 -59947.538284] SLOW spr round 10 (radius: 25)
[03:00:49 -59947.538284] Model parameter optimization (eps = 0.100000)

[03:01:06] ML tree search #11, logLikelihood: -59946.710429

[03:01:06 -244464.820794] Initial branch length optimization
[03:01:08 -63126.412299] Model parameter optimization (eps = 10.000000)
[03:01:36 -59966.110767] AUTODETECT spr round 1 (radius: 5)
[03:02:06 -59956.464225] AUTODETECT spr round 2 (radius: 10)
[03:02:43 -59953.088685] AUTODETECT spr round 3 (radius: 15)
[03:03:28 -59953.083822] SPR radius for FAST iterations: 10 (autodetect)
[03:03:28 -59953.083822] Model parameter optimization (eps = 3.000000)
[03:03:35 -59952.151520] FAST spr round 1 (radius: 10)
[03:04:26 -59952.097263] Model parameter optimization (eps = 1.000000)
[03:04:34 -59951.756115] SLOW spr round 1 (radius: 5)
[03:05:32 -59951.709659] SLOW spr round 2 (radius: 10)
[03:06:28 -59951.708691] SLOW spr round 3 (radius: 15)
[03:07:27 -59951.708690] SLOW spr round 4 (radius: 20)
[03:08:29 -59951.708690] SLOW spr round 5 (radius: 25)
[03:09:33 -59951.708690] Model parameter optimization (eps = 0.100000)

[03:09:44] ML tree search #12, logLikelihood: -59951.499779

[03:09:44 -244459.679138] Initial branch length optimization
[03:09:46 -63113.210006] Model parameter optimization (eps = 10.000000)
[03:10:14 -59954.753690] AUTODETECT spr round 1 (radius: 5)
[03:10:42 -59952.961903] AUTODETECT spr round 2 (radius: 10)
[03:11:16 -59952.931264] SPR radius for FAST iterations: 5 (autodetect)
[03:11:16 -59952.931264] Model parameter optimization (eps = 3.000000)
[03:11:22 -59951.976214] FAST spr round 1 (radius: 5)
[03:11:58 -59951.921183] Model parameter optimization (eps = 1.000000)
[03:12:04 -59951.566983] SLOW spr round 1 (radius: 5)
[03:12:56 -59951.503788] SLOW spr round 2 (radius: 10)
[03:13:47 -59951.503734] SLOW spr round 3 (radius: 15)
[03:14:42 -59951.503734] SLOW spr round 4 (radius: 20)
[03:15:44 -59951.503734] SLOW spr round 5 (radius: 25)
[03:16:46 -59951.503734] Model parameter optimization (eps = 0.100000)

[03:16:56] ML tree search #13, logLikelihood: -59951.295580

[03:16:56 -244464.245573] Initial branch length optimization
[03:16:57 -63126.083871] Model parameter optimization (eps = 10.000000)
[03:17:23 -59966.783965] AUTODETECT spr round 1 (radius: 5)
[03:17:53 -59952.257321] AUTODETECT spr round 2 (radius: 10)
[03:18:29 -59949.052667] AUTODETECT spr round 3 (radius: 15)
[03:19:08 -59949.035168] SPR radius for FAST iterations: 10 (autodetect)
[03:19:08 -59949.035168] Model parameter optimization (eps = 3.000000)
[03:19:15 -59947.762115] FAST spr round 1 (radius: 10)
[03:20:02 -59947.702021] Model parameter optimization (eps = 1.000000)
[03:20:09 -59947.136721] SLOW spr round 1 (radius: 5)
[03:21:04 -59947.092576] SLOW spr round 2 (radius: 10)
[03:21:55 -59947.091089] SLOW spr round 3 (radius: 15)
[03:22:46 -59947.091088] SLOW spr round 4 (radius: 20)
[03:23:46 -59947.091088] SLOW spr round 5 (radius: 25)
[03:24:47 -59947.091088] Model parameter optimization (eps = 0.100000)

[03:24:58] ML tree search #14, logLikelihood: -59946.796144

[03:24:58 -244458.723255] Initial branch length optimization
[03:24:59 -63119.458975] Model parameter optimization (eps = 10.000000)
[03:25:28 -59956.825426] AUTODETECT spr round 1 (radius: 5)
[03:25:58 -59950.924523] AUTODETECT spr round 2 (radius: 10)
[03:26:33 -59949.565552] AUTODETECT spr round 3 (radius: 15)
[03:27:16 -59949.565551] SPR radius for FAST iterations: 10 (autodetect)
[03:27:16 -59949.565551] Model parameter optimization (eps = 3.000000)
[03:27:22 -59948.313671] FAST spr round 1 (radius: 10)
[03:28:08 -59948.260841] Model parameter optimization (eps = 1.000000)
[03:28:14 -59947.699190] SLOW spr round 1 (radius: 5)
[03:29:09 -59947.636304] SLOW spr round 2 (radius: 10)
[03:30:01 -59947.635207] SLOW spr round 3 (radius: 15)
[03:30:54 -59947.214530] SLOW spr round 4 (radius: 5)
[03:31:46 -59947.211649] SLOW spr round 5 (radius: 10)
[03:32:38 -59947.210690] SLOW spr round 6 (radius: 15)
[03:33:31 -59947.210690] SLOW spr round 7 (radius: 20)
[03:34:35 -59947.207772] SLOW spr round 8 (radius: 25)
[03:35:39 -59947.207772] Model parameter optimization (eps = 0.100000)

[03:35:54] ML tree search #15, logLikelihood: -59946.745521

[03:35:54 -244464.254458] Initial branch length optimization
[03:35:55 -63126.954661] Model parameter optimization (eps = 10.000000)
[03:36:25 -59964.695649] AUTODETECT spr round 1 (radius: 5)
[03:36:55 -59952.455133] AUTODETECT spr round 2 (radius: 10)
[03:37:29 -59952.413433] SPR radius for FAST iterations: 5 (autodetect)
[03:37:29 -59952.413433] Model parameter optimization (eps = 3.000000)
[03:37:34 -59951.485138] FAST spr round 1 (radius: 5)
[03:38:06 -59951.433127] Model parameter optimization (eps = 1.000000)
[03:38:13 -59951.091508] SLOW spr round 1 (radius: 5)
[03:39:01 -59951.043020] SLOW spr round 2 (radius: 10)
[03:39:49 -59951.041330] SLOW spr round 3 (radius: 15)
[03:40:40 -59951.041330] SLOW spr round 4 (radius: 20)
[03:41:38 -59951.041330] SLOW spr round 5 (radius: 25)
[03:42:37 -59951.041330] Model parameter optimization (eps = 0.100000)

[03:42:46] ML tree search #16, logLikelihood: -59950.837145



Final LogLikelihood: -59946.240475

AIC score: 121618.480950 / AICc score: 121671.200008 / BIC score: 128764.331950
Free parameters (model + branch lengths): 863

Best ML tree saved to: /home/hikoyu/analysis/Genome/SARS-CoV-2/phylogeny/RAxML-NG/DNA/part/3rd/SARS-CoV-2_200414.11.raxml.bestTree
All ML trees saved to: /home/hikoyu/analysis/Genome/SARS-CoV-2/phylogeny/RAxML-NG/DNA/part/3rd/SARS-CoV-2_200414.11.raxml.mlTrees
Optimized model saved to: /home/hikoyu/analysis/Genome/SARS-CoV-2/phylogeny/RAxML-NG/DNA/part/3rd/SARS-CoV-2_200414.11.raxml.bestModel

Execution log saved to: /home/hikoyu/analysis/Genome/SARS-CoV-2/phylogeny/RAxML-NG/DNA/part/3rd/SARS-CoV-2_200414.11.raxml.log

Analysis started: 20-Apr-2020 11:02:13 / finished: 20-Apr-2020 14:45:00

Elapsed time: 13366.606 seconds

