
RAxML-NG v. 0.9.0 released on 20.05.2019 by The Exelixis Lab.
Developed by: Alexey M. Kozlov and Alexandros Stamatakis.
Contributors: Diego Darriba, Tomas Flouri, Benoit Morel, Sarah Lutteropp, Ben Bettisworth.
Latest version: https://github.com/amkozlov/raxml-ng
Questions/problems/suggestions? Please visit: https://groups.google.com/forum/#!forum/raxml

RAxML-NG was called at 18-Apr-2020 18:58:03 as follows:

raxml-ng --threads 1 --bootstrap --bs-trees 83 --seed 3756760442 --prefix phylogeny/RAxML-NG/DNA/part/uni/SARS-CoV-2_200414.6 --msa phylogeny/RAxML-NG/DNA/part/uni/SARS-CoV-2_200414.raxml.rba --outgroup MG772933.1

Analysis options:
  run mode: Bootstrapping
  start tree(s): 
  bootstrap replicates: 83
  random seed: 3756760442
  tip-inner: OFF
  pattern compression: ON
  per-rate scalers: OFF
  site repeats: ON
  branch lengths: proportional (ML estimate, algorithm: NR-FAST)
  SIMD kernels: AVX2
  parallelization: NONE/sequential

[00:00:00] Loading binary alignment from file: phylogeny/RAxML-NG/DNA/part/uni/SARS-CoV-2_200414.raxml.rba
[00:00:00] Alignment comprises 376 taxa, 11 partitions and 780 patterns

Partition 0: orf1ab_U
Model: TIM3+I+G4m+B
Alignment sites / patterns: 13212 / 266
Gaps: 0.07 %
Invariant sites: 87.93 %

Partition 1: orf1ab_D
Model: TIM2+I+G4m+B
Alignment sites / patterns: 8097 / 151
Gaps: 0.11 %
Invariant sites: 84.14 %

Partition 2: S
Model: TIM3+I+G4m+B
Alignment sites / patterns: 3822 / 126
Gaps: 0.01 %
Invariant sites: 74.15 %

Partition 3: ORF3a
Model: TVM+FO+I+G4m+B
Alignment sites / patterns: 828 / 48
Gaps: 0.00 %
Invariant sites: 84.54 %

Partition 4: E
Model: JC+B
Alignment sites / patterns: 228 / 10
Gaps: 0.00 %
Invariant sites: 96.93 %

Partition 5: M
Model: K80+I+G4m+B
Alignment sites / patterns: 669 / 37
Gaps: 0.00 %
Invariant sites: 90.28 %

Partition 6: ORF6
Model: TN93+FO+I+G4m+B
Alignment sites / patterns: 186 / 16
Gaps: 0.00 %
Invariant sites: 90.86 %

Partition 7: ORF7a
Model: HKY+FO+I+B
Alignment sites / patterns: 366 / 26
Gaps: 0.00 %
Invariant sites: 85.79 %

Partition 8: ORF8
Model: TIM3+I+G4m+B
Alignment sites / patterns: 366 / 30
Gaps: 0.00 %
Invariant sites: 85.25 %

Partition 9: N
Model: HKY+FO+I+G4m+B
Alignment sites / patterns: 1260 / 61
Gaps: 0.00 %
Invariant sites: 87.54 %

Partition 10: ORF10
Model: JC+B
Alignment sites / patterns: 117 / 9
Gaps: 0.00 %
Invariant sites: 95.73 %


[00:00:00] Data distribution: max. partitions/sites/weight per thread: 11 / 780 / 11940
[00:00:00] Starting bootstrapping analysis with 83 replicates.

[00:11:52] Bootstrap tree #1, logLikelihood: -63216.633230
[00:20:29] Bootstrap tree #2, logLikelihood: -62752.600236
[00:29:50] Bootstrap tree #3, logLikelihood: -63809.995786
[00:39:31] Bootstrap tree #4, logLikelihood: -63442.682122
[00:48:42] Bootstrap tree #5, logLikelihood: -63232.777550
[00:57:12] Bootstrap tree #6, logLikelihood: -62490.130889
[01:07:37] Bootstrap tree #7, logLikelihood: -63013.405284
[01:17:12] Bootstrap tree #8, logLikelihood: -63662.496160
[01:26:00] Bootstrap tree #9, logLikelihood: -63210.931226
[01:35:46] Bootstrap tree #10, logLikelihood: -63107.096969
[01:45:06] Bootstrap tree #11, logLikelihood: -63657.542373
[01:55:56] Bootstrap tree #12, logLikelihood: -62748.340971
[02:05:25] Bootstrap tree #13, logLikelihood: -63887.063164
[02:22:27] Bootstrap tree #14, logLikelihood: -63484.767179
[02:36:52] Bootstrap tree #15, logLikelihood: -63032.705653
[02:47:08] Bootstrap tree #16, logLikelihood: -62723.584207
[02:58:10] Bootstrap tree #17, logLikelihood: -62804.852259
[03:08:10] Bootstrap tree #18, logLikelihood: -63595.092943
[03:18:26] Bootstrap tree #19, logLikelihood: -62488.560000
[03:27:57] Bootstrap tree #20, logLikelihood: -62864.333640
[03:38:04] Bootstrap tree #21, logLikelihood: -63491.090006
[03:49:35] Bootstrap tree #22, logLikelihood: -63106.715820
[03:58:27] Bootstrap tree #23, logLikelihood: -63335.142922
[04:08:56] Bootstrap tree #24, logLikelihood: -62944.721638
[04:18:39] Bootstrap tree #25, logLikelihood: -63523.712208
[04:28:32] Bootstrap tree #26, logLikelihood: -64172.483679
[04:43:02] Bootstrap tree #27, logLikelihood: -62841.694536
[04:53:11] Bootstrap tree #28, logLikelihood: -63313.777516
[05:04:04] Bootstrap tree #29, logLikelihood: -62457.610988
[05:12:55] Bootstrap tree #30, logLikelihood: -63255.462920
[05:21:24] Bootstrap tree #31, logLikelihood: -63251.453702
[05:30:54] Bootstrap tree #32, logLikelihood: -62546.745212
[05:43:51] Bootstrap tree #33, logLikelihood: -63700.737634
[05:54:10] Bootstrap tree #34, logLikelihood: -63128.353179
[06:03:26] Bootstrap tree #35, logLikelihood: -63521.836769
[06:13:20] Bootstrap tree #36, logLikelihood: -64555.706848
[06:28:57] Bootstrap tree #37, logLikelihood: -63337.719600
[06:38:27] Bootstrap tree #38, logLikelihood: -63384.644535
[06:47:22] Bootstrap tree #39, logLikelihood: -64355.243565
[06:58:16] Bootstrap tree #40, logLikelihood: -63697.311010
[07:10:28] Bootstrap tree #41, logLikelihood: -63278.278436
[07:21:18] Bootstrap tree #42, logLikelihood: -63135.226769
[07:31:51] Bootstrap tree #43, logLikelihood: -63403.579172
[07:44:17] Bootstrap tree #44, logLikelihood: -64702.790876
[07:54:15] Bootstrap tree #45, logLikelihood: -63187.380382
[08:03:57] Bootstrap tree #46, logLikelihood: -63103.581058
[08:15:17] Bootstrap tree #47, logLikelihood: -63197.289176
[08:25:02] Bootstrap tree #48, logLikelihood: -63134.331646
[08:35:10] Bootstrap tree #49, logLikelihood: -63382.912070
[08:44:10] Bootstrap tree #50, logLikelihood: -63242.796938
[08:54:25] Bootstrap tree #51, logLikelihood: -63652.804379
[09:05:00] Bootstrap tree #52, logLikelihood: -63409.702161
[09:15:30] Bootstrap tree #53, logLikelihood: -63350.916049
[09:25:52] Bootstrap tree #54, logLikelihood: -63523.457660
[09:38:21] Bootstrap tree #55, logLikelihood: -62657.070935
[09:47:06] Bootstrap tree #56, logLikelihood: -63685.031659
[09:56:26] Bootstrap tree #57, logLikelihood: -63106.808558
[10:06:51] Bootstrap tree #58, logLikelihood: -63090.117374
[10:19:10] Bootstrap tree #59, logLikelihood: -63201.328120
[10:28:48] Bootstrap tree #60, logLikelihood: -63385.883513
[10:40:10] Bootstrap tree #61, logLikelihood: -63256.781192
[10:51:50] Bootstrap tree #62, logLikelihood: -62851.748888
[11:03:56] Bootstrap tree #63, logLikelihood: -63057.083200
[11:13:19] Bootstrap tree #64, logLikelihood: -63095.200291
[11:23:16] Bootstrap tree #65, logLikelihood: -63868.460056
[11:34:50] Bootstrap tree #66, logLikelihood: -63212.843139
[11:43:55] Bootstrap tree #67, logLikelihood: -63606.816223
[11:54:03] Bootstrap tree #68, logLikelihood: -63658.276240
[12:03:09] Bootstrap tree #69, logLikelihood: -62977.917287
[12:13:14] Bootstrap tree #70, logLikelihood: -63113.022758
[12:23:21] Bootstrap tree #71, logLikelihood: -62895.810500
[12:33:08] Bootstrap tree #72, logLikelihood: -63470.166138
[12:41:37] Bootstrap tree #73, logLikelihood: -62974.455507
[12:51:38] Bootstrap tree #74, logLikelihood: -62462.198368
[13:00:13] Bootstrap tree #75, logLikelihood: -63413.757392
[13:10:29] Bootstrap tree #76, logLikelihood: -63295.009138
[13:23:10] Bootstrap tree #77, logLikelihood: -62778.600522
[13:36:54] Bootstrap tree #78, logLikelihood: -63465.607354
[13:48:19] Bootstrap tree #79, logLikelihood: -63299.113382
[13:58:56] Bootstrap tree #80, logLikelihood: -63190.426608
[14:07:47] Bootstrap tree #81, logLikelihood: -63367.891656
[14:18:57] Bootstrap tree #82, logLikelihood: -62969.694660
[14:29:09] Bootstrap tree #83, logLikelihood: -63218.601636

Bootstrap trees saved to: /home/hikoyu/analysis/Genome/SARS-CoV-2/phylogeny/RAxML-NG/DNA/part/uni/SARS-CoV-2_200414.6.raxml.bootstraps

Execution log saved to: /home/hikoyu/analysis/Genome/SARS-CoV-2/phylogeny/RAxML-NG/DNA/part/uni/SARS-CoV-2_200414.6.raxml.log

Analysis started: 18-Apr-2020 18:58:03 / finished: 19-Apr-2020 09:27:13

Elapsed time: 52150.188 seconds

