
RAxML-NG v. 0.9.0 released on 20.05.2019 by The Exelixis Lab.
Developed by: Alexey M. Kozlov and Alexandros Stamatakis.
Contributors: Diego Darriba, Tomas Flouri, Benoit Morel, Sarah Lutteropp, Ben Bettisworth.
Latest version: https://github.com/amkozlov/raxml-ng
Questions/problems/suggestions? Please visit: https://groups.google.com/forum/#!forum/raxml

RAxML-NG was called at 16-Apr-2020 11:22:41 as follows:

raxml-ng --threads 1 --bootstrap --bs-trees 83 --seed 2584428270 --prefix phylogeny/RAxML-NG/DNA/univ/3rd/SARS-CoV-2_200414.6 --msa phylogeny/RAxML-NG/DNA/univ/3rd/SARS-CoV-2_200414.raxml.rba --outgroup MG772933.1

Analysis options:
  run mode: Bootstrapping
  start tree(s): 
  bootstrap replicates: 83
  random seed: 2584428270
  tip-inner: OFF
  pattern compression: ON
  per-rate scalers: OFF
  site repeats: ON
  branch lengths: proportional (ML estimate, algorithm: NR-FAST)
  SIMD kernels: AVX2
  parallelization: NONE/sequential

[00:00:00] Loading binary alignment from file: phylogeny/RAxML-NG/DNA/univ/3rd/SARS-CoV-2_200414.raxml.rba
[00:00:00] Alignment comprises 376 taxa, 2 partitions and 615 patterns

Partition 0: p1_p2
Model: TIM3+G4m+B
Alignment sites / patterns: 19434 / 323
Gaps: 0.07 %
Invariant sites: 93.90 %

Partition 1: p3
Model: TIM3+G4m+B
Alignment sites / patterns: 9717 / 292
Gaps: 0.07 %
Invariant sites: 67.41 %


[00:00:00] Data distribution: max. partitions/sites/weight per thread: 2 / 615 / 9840
[00:00:00] Starting bootstrapping analysis with 83 replicates.

[00:02:50] Bootstrap tree #1, logLikelihood: -61869.954804
[00:07:33] Bootstrap tree #2, logLikelihood: -62038.711622
[00:10:21] Bootstrap tree #3, logLikelihood: -61187.813451
[00:13:02] Bootstrap tree #4, logLikelihood: -61978.864854
[00:15:37] Bootstrap tree #5, logLikelihood: -62030.182964
[00:18:30] Bootstrap tree #6, logLikelihood: -61759.779726
[00:21:43] Bootstrap tree #7, logLikelihood: -62136.106048
[00:24:52] Bootstrap tree #8, logLikelihood: -62522.879362
[00:27:45] Bootstrap tree #9, logLikelihood: -61983.900293
[00:30:33] Bootstrap tree #10, logLikelihood: -61759.911222
[00:33:37] Bootstrap tree #11, logLikelihood: -61654.681207
[00:36:36] Bootstrap tree #12, logLikelihood: -62744.166925
[00:39:38] Bootstrap tree #13, logLikelihood: -61770.138406
[00:42:41] Bootstrap tree #14, logLikelihood: -61190.204011
[00:45:34] Bootstrap tree #15, logLikelihood: -62198.823893
[00:48:24] Bootstrap tree #16, logLikelihood: -62048.109753
[00:51:19] Bootstrap tree #17, logLikelihood: -61751.740855
[00:54:01] Bootstrap tree #18, logLikelihood: -61974.787384
[00:56:43] Bootstrap tree #19, logLikelihood: -62015.529340
[00:59:39] Bootstrap tree #20, logLikelihood: -61702.290422
[01:02:45] Bootstrap tree #21, logLikelihood: -62428.206428
[01:05:35] Bootstrap tree #22, logLikelihood: -62023.414688
[01:08:48] Bootstrap tree #23, logLikelihood: -61932.669784
[01:12:02] Bootstrap tree #24, logLikelihood: -61854.581252
[01:14:53] Bootstrap tree #25, logLikelihood: -61895.819776
[01:17:23] Bootstrap tree #26, logLikelihood: -61991.499856
[01:20:38] Bootstrap tree #27, logLikelihood: -61201.899698
[01:23:24] Bootstrap tree #28, logLikelihood: -61692.270758
[01:26:08] Bootstrap tree #29, logLikelihood: -62221.628312
[01:29:06] Bootstrap tree #30, logLikelihood: -61706.641239
[01:31:51] Bootstrap tree #31, logLikelihood: -61959.554432
[01:35:08] Bootstrap tree #32, logLikelihood: -62116.614741
[01:39:24] Bootstrap tree #33, logLikelihood: -61212.459695
[01:43:16] Bootstrap tree #34, logLikelihood: -62246.821872
[01:45:57] Bootstrap tree #35, logLikelihood: -61646.535599
[01:49:59] Bootstrap tree #36, logLikelihood: -62058.355036
[01:52:49] Bootstrap tree #37, logLikelihood: -61989.229335
[01:55:50] Bootstrap tree #38, logLikelihood: -61973.005705
[01:58:31] Bootstrap tree #39, logLikelihood: -62268.169769
[02:01:36] Bootstrap tree #40, logLikelihood: -62040.942272
[02:04:28] Bootstrap tree #41, logLikelihood: -62328.105858
[02:07:22] Bootstrap tree #42, logLikelihood: -61398.592356
[02:10:05] Bootstrap tree #43, logLikelihood: -61819.253401
[02:13:06] Bootstrap tree #44, logLikelihood: -62209.437672
[02:15:44] Bootstrap tree #45, logLikelihood: -61345.171720
[02:18:58] Bootstrap tree #46, logLikelihood: -62204.493748
[02:22:20] Bootstrap tree #47, logLikelihood: -62385.837507
[02:25:26] Bootstrap tree #48, logLikelihood: -62335.775543
[02:29:49] Bootstrap tree #49, logLikelihood: -62102.149395
[02:32:43] Bootstrap tree #50, logLikelihood: -61761.263472
[02:36:05] Bootstrap tree #51, logLikelihood: -62282.705562
[02:38:54] Bootstrap tree #52, logLikelihood: -61818.939331
[02:43:15] Bootstrap tree #53, logLikelihood: -62156.986160
[02:46:10] Bootstrap tree #54, logLikelihood: -61766.184347
[02:49:38] Bootstrap tree #55, logLikelihood: -62158.598945
[02:52:43] Bootstrap tree #56, logLikelihood: -61692.030021
[02:55:44] Bootstrap tree #57, logLikelihood: -61995.683915
[03:00:07] Bootstrap tree #58, logLikelihood: -62320.247433
[03:03:41] Bootstrap tree #59, logLikelihood: -61797.336721
[03:06:29] Bootstrap tree #60, logLikelihood: -61832.632459
[03:09:13] Bootstrap tree #61, logLikelihood: -62060.552475
[03:12:07] Bootstrap tree #62, logLikelihood: -61108.786070
[03:15:51] Bootstrap tree #63, logLikelihood: -61896.127516
[03:19:00] Bootstrap tree #64, logLikelihood: -62259.672409
[03:21:52] Bootstrap tree #65, logLikelihood: -61806.116752
[03:24:54] Bootstrap tree #66, logLikelihood: -61053.976819
[03:27:58] Bootstrap tree #67, logLikelihood: -61739.511323
[03:30:45] Bootstrap tree #68, logLikelihood: -61966.235030
[03:33:37] Bootstrap tree #69, logLikelihood: -62128.178826
[03:36:48] Bootstrap tree #70, logLikelihood: -61657.958169
[03:40:33] Bootstrap tree #71, logLikelihood: -62201.789337
[03:43:39] Bootstrap tree #72, logLikelihood: -61381.231524
[03:48:20] Bootstrap tree #73, logLikelihood: -61716.661006
[03:51:19] Bootstrap tree #74, logLikelihood: -61956.592006
[03:54:55] Bootstrap tree #75, logLikelihood: -61982.651892
[03:58:03] Bootstrap tree #76, logLikelihood: -62250.754501
[04:01:01] Bootstrap tree #77, logLikelihood: -61855.332214
[04:03:59] Bootstrap tree #78, logLikelihood: -61793.391434
[04:07:20] Bootstrap tree #79, logLikelihood: -62613.898732
[04:10:14] Bootstrap tree #80, logLikelihood: -62143.869764
[04:13:06] Bootstrap tree #81, logLikelihood: -61925.790236
[04:16:03] Bootstrap tree #82, logLikelihood: -61698.952910
[04:19:24] Bootstrap tree #83, logLikelihood: -61827.011847

Bootstrap trees saved to: /home/hikoyu/analysis/Genome/SARS-CoV-2/phylogeny/RAxML-NG/DNA/univ/3rd/SARS-CoV-2_200414.6.raxml.bootstraps

Execution log saved to: /home/hikoyu/analysis/Genome/SARS-CoV-2/phylogeny/RAxML-NG/DNA/univ/3rd/SARS-CoV-2_200414.6.raxml.log

Analysis started: 16-Apr-2020 11:22:41 / finished: 16-Apr-2020 15:42:05

Elapsed time: 15564.555 seconds

